arg1 is the astypes to generate, 501-wiser, 504 sbgp, 505 bw 507 replacement
arg2 is where to monitor in the simulator, participating 0, all 1, gulf 2
arg3 is max number of propagated paths
arg4 is the random method, 0 for pool, 1 for weigthed, 2 for uniform
arg5 is the legend name
arg6 is whether to perfomr richworld
arg7 is the percentage of ases with passthrough enabled
505 1 10 2 0.0 passthrough 0 0.0astypes.txt
LEGEND 0.0 passthrough ENDLEGEND\n

Testing for stub/transit percentage: 0.010000

Testing on Transit seed 1
numpathcap: 10
percent passthrough ases:
0.0
[]
[]
12345678910111213141516171819202122232425262728WISER_RIB_GRAPH 0.1 NaN END
WISER_FIB_GRAPH 0.1 NaN END
ALLWISER_RIB_GRAPH 0.1 186438.58 END
ALLWISER_FIB_GRAPH 0.1 70008.92 END
BW_RIB_GRAPH 0.1 13000.2 END
BW_FIB_GRAPH 0.1 5094.4 END
ALLBW_RIB_GRAPH 0.1 14567.78 END
ALLBW_FIB_GRAPH 0.1 6708.88 END
REPLACEMENT_RIB_GRAPH 0.1 NaN END
REPLACEMENT_FIB_GRAPH 0.1 NaN END
REPLACEMENT_STUB_RIB_GRAPH 0.1 NaN END
REPLACEMENT_STUB_FIB_GRAPH 0.1 NaN END
[]
[]
12345678910111213141516171819202122232425262728WISER_RIB_BGP_GRAPH 0.1 NaN END
WISER_FIB_BGP_GRAPH 0.1 NaN END
ALLWISER_RIB_BGP_GRAPH 0.1 181507.88 END
ALLWISER_FIB_BGP_GRAPH 0.1 66991.04 END
BW_RIB_BGP_GRAPH 0.1 NaN END
BW_FIB_BPG_GRAPH 0.1 NaN END
ALLBW_RIB_BPG_GRAPH 0.1 14747.38 END
ALLBW_FIB_BGP_GRAPH 0.1 6851.84 END

Testing on Transit seed 2
numpathcap: 10
percent passthrough ases:
0.0
[]
[]
12345678910111213141516171819202122232425262728WISER_RIB_GRAPH 0.1 NaN END
WISER_FIB_GRAPH 0.1 NaN END
ALLWISER_RIB_GRAPH 0.1 198832.56 END
ALLWISER_FIB_GRAPH 0.1 75320.85 END
BW_RIB_GRAPH 0.1 14524.3 END
BW_FIB_GRAPH 0.1 5265.6 END
ALLBW_RIB_GRAPH 0.1 13694.79 END
ALLBW_FIB_GRAPH 0.1 6445.77 END
REPLACEMENT_RIB_GRAPH 0.1 NaN END
REPLACEMENT_FIB_GRAPH 0.1 NaN END
REPLACEMENT_STUB_RIB_GRAPH 0.1 NaN END
REPLACEMENT_STUB_FIB_GRAPH 0.1 NaN END
[]
[]
12345678910111213141516171819202122232425262728WISER_RIB_BGP_GRAPH 0.1 NaN END
WISER_FIB_BGP_GRAPH 0.1 NaN END
ALLWISER_RIB_BGP_GRAPH 0.1 181507.88 END
ALLWISER_FIB_BGP_GRAPH 0.1 66991.04 END
BW_RIB_BGP_GRAPH 0.1 NaN END
BW_FIB_BPG_GRAPH 0.1 NaN END
ALLBW_RIB_BPG_GRAPH 0.1 14747.38 END
ALLBW_FIB_BGP_GRAPH 0.1 6851.84 END

Testing on Transit seed 3
numpathcap: 10
percent passthrough ases:
0.0
[]
[]
12345678910111213141516171819202122232425262728WISER_RIB_GRAPH 0.1 NaN END
WISER_FIB_GRAPH 0.1 NaN END
ALLWISER_RIB_GRAPH 0.1 191723.45 END
ALLWISER_FIB_GRAPH 0.1 71978.15 END
BW_RIB_GRAPH 0.1 17397.9 END
BW_FIB_GRAPH 0.1 7051.0 END
ALLBW_RIB_GRAPH 0.1 14745.25 END
ALLBW_FIB_GRAPH 0.1 6700.17 END
REPLACEMENT_RIB_GRAPH 0.1 NaN END
REPLACEMENT_FIB_GRAPH 0.1 NaN END
REPLACEMENT_STUB_RIB_GRAPH 0.1 NaN END
REPLACEMENT_STUB_FIB_GRAPH 0.1 NaN END
[]
[]
12345678910111213141516171819202122232425262728WISER_RIB_BGP_GRAPH 0.1 NaN END
WISER_FIB_BGP_GRAPH 0.1 NaN END
ALLWISER_RIB_BGP_GRAPH 0.1 181507.88 END
ALLWISER_FIB_BGP_GRAPH 0.1 66991.04 END
BW_RIB_BGP_GRAPH 0.1 NaN END
BW_FIB_BPG_GRAPH 0.1 NaN END
ALLBW_RIB_BPG_GRAPH 0.1 14747.38 END
ALLBW_FIB_BGP_GRAPH 0.1 6851.84 END

Testing for stub/transit percentage: 0.020000

Testing on Transit seed 1
numpathcap: 10
percent passthrough ases:
0.0
[]
[]
12345678910111213141516171819202122232425262728WISER_RIB_GRAPH 0.2 NaN END
WISER_FIB_GRAPH 0.2 NaN END
ALLWISER_RIB_GRAPH 0.2 211983.88 END
ALLWISER_FIB_GRAPH 0.2 79939.61 END
BW_RIB_GRAPH 0.2 13101.85 END
BW_FIB_GRAPH 0.2 4487.7 END
ALLBW_RIB_GRAPH 0.2 12108.87 END
ALLBW_FIB_GRAPH 0.2 5632.36 END
REPLACEMENT_RIB_GRAPH 0.2 NaN END
REPLACEMENT_FIB_GRAPH 0.2 NaN END
REPLACEMENT_STUB_RIB_GRAPH 0.2 NaN END
REPLACEMENT_STUB_FIB_GRAPH 0.2 NaN END
[]
[]
12345678910111213141516171819202122232425262728WISER_RIB_BGP_GRAPH 0.2 NaN END
WISER_FIB_BGP_GRAPH 0.2 NaN END
ALLWISER_RIB_BGP_GRAPH 0.2 181507.88 END
ALLWISER_FIB_BGP_GRAPH 0.2 66991.04 END
BW_RIB_BGP_GRAPH 0.2 NaN END
BW_FIB_BPG_GRAPH 0.2 NaN END
ALLBW_RIB_BPG_GRAPH 0.2 14747.38 END
ALLBW_FIB_BGP_GRAPH 0.2 6851.84 END

Testing on Transit seed 2
numpathcap: 10
percent passthrough ases:
0.0
[]
[]
12345678910111213141516171819202122232425262728WISER_RIB_GRAPH 0.2 NaN END
WISER_FIB_GRAPH 0.2 NaN END
ALLWISER_RIB_GRAPH 0.2 203481.8 END
ALLWISER_FIB_GRAPH 0.2 79073.9 END
BW_RIB_GRAPH 0.2 12921.15 END
BW_FIB_GRAPH 0.2 5075.4 END
ALLBW_RIB_GRAPH 0.2 13432.97 END
ALLBW_FIB_GRAPH 0.2 6266.71 END
REPLACEMENT_RIB_GRAPH 0.2 NaN END
REPLACEMENT_FIB_GRAPH 0.2 NaN END
REPLACEMENT_STUB_RIB_GRAPH 0.2 NaN END
REPLACEMENT_STUB_FIB_GRAPH 0.2 NaN END
[]
[]
12345678910111213141516171819202122232425262728WISER_RIB_BGP_GRAPH 0.2 NaN END
WISER_FIB_BGP_GRAPH 0.2 NaN END
ALLWISER_RIB_BGP_GRAPH 0.2 181507.88 END
ALLWISER_FIB_BGP_GRAPH 0.2 66991.04 END
BW_RIB_BGP_GRAPH 0.2 NaN END
BW_FIB_BPG_GRAPH 0.2 NaN END
ALLBW_RIB_BPG_GRAPH 0.2 14747.38 END
ALLBW_FIB_BGP_GRAPH 0.2 6851.84 END

Testing on Transit seed 3
numpathcap: 10
percent passthrough ases:
0.0
[]
[]
12345678910111213141516171819202122232425262728WISER_RIB_GRAPH 0.2 NaN END
WISER_FIB_GRAPH 0.2 NaN END
ALLWISER_RIB_GRAPH 0.2 192421.28 END
ALLWISER_FIB_GRAPH 0.2 74597.02 END
BW_RIB_GRAPH 0.2 15064.75 END
BW_FIB_GRAPH 0.2 6074.15 END
ALLBW_RIB_GRAPH 0.2 14561.8 END
ALLBW_FIB_GRAPH 0.2 6693.86 END
REPLACEMENT_RIB_GRAPH 0.2 NaN END
REPLACEMENT_FIB_GRAPH 0.2 NaN END
REPLACEMENT_STUB_RIB_GRAPH 0.2 NaN END
REPLACEMENT_STUB_FIB_GRAPH 0.2 NaN END
[]
[]
12345678910111213141516171819202122232425262728WISER_RIB_BGP_GRAPH 0.2 NaN END
WISER_FIB_BGP_GRAPH 0.2 NaN END
ALLWISER_RIB_BGP_GRAPH 0.2 181507.88 END
ALLWISER_FIB_BGP_GRAPH 0.2 66991.04 END
BW_RIB_BGP_GRAPH 0.2 NaN END
BW_FIB_BPG_GRAPH 0.2 NaN END
ALLBW_RIB_BPG_GRAPH 0.2 14747.38 END
ALLBW_FIB_BGP_GRAPH 0.2 6851.84 END

Testing for stub/transit percentage: 0.030000

Testing on Transit seed 1
numpathcap: 10
percent passthrough ases:
0.0
[]
[]
12345678910111213141516171819202122232425262728WISER_RIB_GRAPH 0.3 NaN END
WISER_FIB_GRAPH 0.3 NaN END
ALLWISER_RIB_GRAPH 0.3 218559.52 END
ALLWISER_FIB_GRAPH 0.3 85091.85 END
BW_RIB_GRAPH 0.3 12793.934 END
BW_FIB_GRAPH 0.3 4918.8 END
ALLBW_RIB_GRAPH 0.3 12556.86 END
ALLBW_FIB_GRAPH 0.3 5726.88 END
REPLACEMENT_RIB_GRAPH 0.3 NaN END
REPLACEMENT_FIB_GRAPH 0.3 NaN END
REPLACEMENT_STUB_RIB_GRAPH 0.3 NaN END
REPLACEMENT_STUB_FIB_GRAPH 0.3 NaN END
[]
[]
12345678910111213141516171819202122232425262728WISER_RIB_BGP_GRAPH 0.3 NaN END
WISER_FIB_BGP_GRAPH 0.3 NaN END
ALLWISER_RIB_BGP_GRAPH 0.3 181507.88 END
ALLWISER_FIB_BGP_GRAPH 0.3 66991.04 END
BW_RIB_BGP_GRAPH 0.3 NaN END
BW_FIB_BPG_GRAPH 0.3 NaN END
ALLBW_RIB_BPG_GRAPH 0.3 14747.38 END
ALLBW_FIB_BGP_GRAPH 0.3 6851.84 END

Testing on Transit seed 2
numpathcap: 10
percent passthrough ases:
0.0
[]
[]
12345678910111213141516171819202122232425262728WISER_RIB_GRAPH 0.3 NaN END
WISER_FIB_GRAPH 0.3 NaN END
ALLWISER_RIB_GRAPH 0.3 205431.27 END
ALLWISER_FIB_GRAPH 0.3 81345.47 END
BW_RIB_GRAPH 0.3 11992.767 END
BW_FIB_GRAPH 0.3 4925.533 END
ALLBW_RIB_GRAPH 0.3 13234.48 END
ALLBW_FIB_GRAPH 0.3 6059.63 END
REPLACEMENT_RIB_GRAPH 0.3 NaN END
REPLACEMENT_FIB_GRAPH 0.3 NaN END
REPLACEMENT_STUB_RIB_GRAPH 0.3 NaN END
REPLACEMENT_STUB_FIB_GRAPH 0.3 NaN END
[]
[]
12345678910111213141516171819202122232425262728WISER_RIB_BGP_GRAPH 0.3 NaN END
WISER_FIB_BGP_GRAPH 0.3 NaN END
ALLWISER_RIB_BGP_GRAPH 0.3 181507.88 END
ALLWISER_FIB_BGP_GRAPH 0.3 66991.04 END
BW_RIB_BGP_GRAPH 0.3 NaN END
BW_FIB_BPG_GRAPH 0.3 NaN END
ALLBW_RIB_BPG_GRAPH 0.3 14747.38 END
ALLBW_FIB_BGP_GRAPH 0.3 6851.84 END

Testing on Transit seed 3
numpathcap: 10
percent passthrough ases:
0.0
[]
[]
12345678910111213141516171819202122232425262728WISER_RIB_GRAPH 0.3 NaN END
WISER_FIB_GRAPH 0.3 NaN END
ALLWISER_RIB_GRAPH 0.3 209171.95 END
ALLWISER_FIB_GRAPH 0.3 81702.57 END
BW_RIB_GRAPH 0.3 15230.366 END
BW_FIB_GRAPH 0.3 6182.5 END
ALLBW_RIB_GRAPH 0.3 14275.27 END
ALLBW_FIB_GRAPH 0.3 6570.0 END
REPLACEMENT_RIB_GRAPH 0.3 NaN END
REPLACEMENT_FIB_GRAPH 0.3 NaN END
REPLACEMENT_STUB_RIB_GRAPH 0.3 NaN END
REPLACEMENT_STUB_FIB_GRAPH 0.3 NaN END
[]
[]
12345678910111213141516171819202122232425262728WISER_RIB_BGP_GRAPH 0.3 NaN END
WISER_FIB_BGP_GRAPH 0.3 NaN END
ALLWISER_RIB_BGP_GRAPH 0.3 181507.88 END
ALLWISER_FIB_BGP_GRAPH 0.3 66991.04 END
BW_RIB_BGP_GRAPH 0.3 NaN END
BW_FIB_BPG_GRAPH 0.3 NaN END
ALLBW_RIB_BPG_GRAPH 0.3 14747.38 END
ALLBW_FIB_BGP_GRAPH 0.3 6851.84 END

Testing for stub/transit percentage: 0.040000

Testing on Transit seed 1
numpathcap: 10
percent passthrough ases:
0.0
[]
[]
12345678910111213141516171819202122232425262728WISER_RIB_GRAPH 0.4 NaN END
WISER_FIB_GRAPH 0.4 NaN END
ALLWISER_RIB_GRAPH 0.4 217295.38 END
ALLWISER_FIB_GRAPH 0.4 86865.75 END
BW_RIB_GRAPH 0.4 12458.85 END
BW_FIB_GRAPH 0.4 4965.75 END
ALLBW_RIB_GRAPH 0.4 12628.12 END
ALLBW_FIB_GRAPH 0.4 5630.9 END
REPLACEMENT_RIB_GRAPH 0.4 NaN END
REPLACEMENT_FIB_GRAPH 0.4 NaN END
REPLACEMENT_STUB_RIB_GRAPH 0.4 NaN END
REPLACEMENT_STUB_FIB_GRAPH 0.4 NaN END
[]
[]
12345678910111213141516171819202122232425262728WISER_RIB_BGP_GRAPH 0.4 NaN END
WISER_FIB_BGP_GRAPH 0.4 NaN END
ALLWISER_RIB_BGP_GRAPH 0.4 181507.88 END
ALLWISER_FIB_BGP_GRAPH 0.4 66991.04 END
BW_RIB_BGP_GRAPH 0.4 NaN END
BW_FIB_BPG_GRAPH 0.4 NaN END
ALLBW_RIB_BPG_GRAPH 0.4 14747.38 END
ALLBW_FIB_BGP_GRAPH 0.4 6851.84 END

Testing on Transit seed 2
numpathcap: 10
percent passthrough ases:
0.0
[]
[]
12345678910111213141516171819202122232425262728WISER_RIB_GRAPH 0.4 NaN END
WISER_FIB_GRAPH 0.4 NaN END
ALLWISER_RIB_GRAPH 0.4 230072.7 END
ALLWISER_FIB_GRAPH 0.4 91314.64 END
BW_RIB_GRAPH 0.4 12271.875 END
BW_FIB_GRAPH 0.4 4988.325 END
ALLBW_RIB_GRAPH 0.4 13118.89 END
ALLBW_FIB_GRAPH 0.4 5964.84 END
REPLACEMENT_RIB_GRAPH 0.4 NaN END
REPLACEMENT_FIB_GRAPH 0.4 NaN END
REPLACEMENT_STUB_RIB_GRAPH 0.4 NaN END
REPLACEMENT_STUB_FIB_GRAPH 0.4 NaN END
[]
[]
12345678910111213141516171819202122232425262728WISER_RIB_BGP_GRAPH 0.4 NaN END
WISER_FIB_BGP_GRAPH 0.4 NaN END
ALLWISER_RIB_BGP_GRAPH 0.4 181507.88 END
ALLWISER_FIB_BGP_GRAPH 0.4 66991.04 END
BW_RIB_BGP_GRAPH 0.4 NaN END
BW_FIB_BPG_GRAPH 0.4 NaN END
ALLBW_RIB_BPG_GRAPH 0.4 14747.38 END
ALLBW_FIB_BGP_GRAPH 0.4 6851.84 END

Testing on Transit seed 3
numpathcap: 10
percent passthrough ases:
0.0
[]
[]
12345678910111213141516171819202122232425262728WISER_RIB_GRAPH 0.4 NaN END
WISER_FIB_GRAPH 0.4 NaN END
ALLWISER_RIB_GRAPH 0.4 209985.78 END
ALLWISER_FIB_GRAPH 0.4 84819.13 END
BW_RIB_GRAPH 0.4 14376.5 END
BW_FIB_GRAPH 0.4 6341.575 END
ALLBW_RIB_GRAPH 0.4 14235.81 END
ALLBW_FIB_GRAPH 0.4 6540.87 END
REPLACEMENT_RIB_GRAPH 0.4 NaN END
REPLACEMENT_FIB_GRAPH 0.4 NaN END
REPLACEMENT_STUB_RIB_GRAPH 0.4 NaN END
REPLACEMENT_STUB_FIB_GRAPH 0.4 NaN END
[]
[]
12345678910111213141516171819202122232425262728WISER_RIB_BGP_GRAPH 0.4 NaN END
WISER_FIB_BGP_GRAPH 0.4 NaN END
ALLWISER_RIB_BGP_GRAPH 0.4 181507.88 END
ALLWISER_FIB_BGP_GRAPH 0.4 66991.04 END
BW_RIB_BGP_GRAPH 0.4 NaN END
BW_FIB_BPG_GRAPH 0.4 NaN END
ALLBW_RIB_BPG_GRAPH 0.4 14747.38 END
ALLBW_FIB_BGP_GRAPH 0.4 6851.84 END

Testing for stub/transit percentage: 0.050000

Testing on Transit seed 1
numpathcap: 10
percent passthrough ases:
0.0
[]
[]
12345678910111213141516171819202122232425262728WISER_RIB_GRAPH 0.5 NaN END
WISER_FIB_GRAPH 0.5 NaN END
ALLWISER_RIB_GRAPH 0.5 234136.88 END
ALLWISER_FIB_GRAPH 0.5 96162.15 END
BW_RIB_GRAPH 0.5 13186.68 END
BW_FIB_GRAPH 0.5 5745.1 END
ALLBW_RIB_GRAPH 0.5 13258.79 END
ALLBW_FIB_GRAPH 0.5 6008.64 END
REPLACEMENT_RIB_GRAPH 0.5 NaN END
REPLACEMENT_FIB_GRAPH 0.5 NaN END
REPLACEMENT_STUB_RIB_GRAPH 0.5 NaN END
REPLACEMENT_STUB_FIB_GRAPH 0.5 NaN END
[]
[]
12345678910111213141516171819202122232425262728WISER_RIB_BGP_GRAPH 0.5 NaN END
WISER_FIB_BGP_GRAPH 0.5 NaN END
ALLWISER_RIB_BGP_GRAPH 0.5 181507.88 END
ALLWISER_FIB_BGP_GRAPH 0.5 66991.04 END
BW_RIB_BGP_GRAPH 0.5 NaN END
BW_FIB_BPG_GRAPH 0.5 NaN END
ALLBW_RIB_BPG_GRAPH 0.5 14747.38 END
ALLBW_FIB_BGP_GRAPH 0.5 6851.84 END

Testing on Transit seed 2
numpathcap: 10
percent passthrough ases:
0.0
[]
[]
12345678910111213141516171819202122232425262728WISER_RIB_GRAPH 0.5 NaN END
WISER_FIB_GRAPH 0.5 NaN END
ALLWISER_RIB_GRAPH 0.5 243854.58 END
ALLWISER_FIB_GRAPH 0.5 99644.64 END
BW_RIB_GRAPH 0.5 12900.92 END
BW_FIB_GRAPH 0.5 5783.1 END
ALLBW_RIB_GRAPH 0.5 13891.37 END
ALLBW_FIB_GRAPH 0.5 6258.6 END
REPLACEMENT_RIB_GRAPH 0.5 NaN END
REPLACEMENT_FIB_GRAPH 0.5 NaN END
REPLACEMENT_STUB_RIB_GRAPH 0.5 NaN END
REPLACEMENT_STUB_FIB_GRAPH 0.5 NaN END
[]
[]
12345678910111213141516171819202122232425262728WISER_RIB_BGP_GRAPH 0.5 NaN END
WISER_FIB_BGP_GRAPH 0.5 NaN END
ALLWISER_RIB_BGP_GRAPH 0.5 181507.88 END
ALLWISER_FIB_BGP_GRAPH 0.5 66991.04 END
BW_RIB_BGP_GRAPH 0.5 NaN END
BW_FIB_BPG_GRAPH 0.5 NaN END
ALLBW_RIB_BPG_GRAPH 0.5 14747.38 END
ALLBW_FIB_BGP_GRAPH 0.5 6851.84 END

Testing on Transit seed 3
numpathcap: 10
percent passthrough ases:
0.0
[]
[]
12345678910111213141516171819202122232425262728WISER_RIB_GRAPH 0.5 NaN END
WISER_FIB_GRAPH 0.5 NaN END
ALLWISER_RIB_GRAPH 0.5 217180.64 END
ALLWISER_FIB_GRAPH 0.5 88852.55 END
BW_RIB_GRAPH 0.5 14410.9 END
BW_FIB_GRAPH 0.5 6280.02 END
ALLBW_RIB_GRAPH 0.5 14013.14 END
ALLBW_FIB_GRAPH 0.5 6394.25 END
REPLACEMENT_RIB_GRAPH 0.5 NaN END
REPLACEMENT_FIB_GRAPH 0.5 NaN END
REPLACEMENT_STUB_RIB_GRAPH 0.5 NaN END
REPLACEMENT_STUB_FIB_GRAPH 0.5 NaN END
[]
[]
12345678910111213141516171819202122232425262728WISER_RIB_BGP_GRAPH 0.5 NaN END
WISER_FIB_BGP_GRAPH 0.5 NaN END
ALLWISER_RIB_BGP_GRAPH 0.5 181507.88 END
ALLWISER_FIB_BGP_GRAPH 0.5 66991.04 END
BW_RIB_BGP_GRAPH 0.5 NaN END
BW_FIB_BPG_GRAPH 0.5 NaN END
ALLBW_RIB_BPG_GRAPH 0.5 14747.38 END
ALLBW_FIB_BGP_GRAPH 0.5 6851.84 END

Testing for stub/transit percentage: 0.060000

Testing on Transit seed 1
numpathcap: 10
percent passthrough ases:
0.0
[]
[]
12345678910111213141516171819202122232425262728WISER_RIB_GRAPH 0.6 NaN END
WISER_FIB_GRAPH 0.6 NaN END
ALLWISER_RIB_GRAPH 0.6 257362.05 END
ALLWISER_FIB_GRAPH 0.6 108368.76 END
BW_RIB_GRAPH 0.6 13079.6 END
BW_FIB_GRAPH 0.6 6000.6333 END
ALLBW_RIB_GRAPH 0.6 13353.73 END
ALLBW_FIB_GRAPH 0.6 6063.02 END
REPLACEMENT_RIB_GRAPH 0.6 NaN END
REPLACEMENT_FIB_GRAPH 0.6 NaN END
REPLACEMENT_STUB_RIB_GRAPH 0.6 NaN END
REPLACEMENT_STUB_FIB_GRAPH 0.6 NaN END
[]
[]
12345678910111213141516171819202122232425262728WISER_RIB_BGP_GRAPH 0.6 NaN END
WISER_FIB_BGP_GRAPH 0.6 NaN END
ALLWISER_RIB_BGP_GRAPH 0.6 181507.88 END
ALLWISER_FIB_BGP_GRAPH 0.6 66991.04 END
BW_RIB_BGP_GRAPH 0.6 NaN END
BW_FIB_BPG_GRAPH 0.6 NaN END
ALLBW_RIB_BPG_GRAPH 0.6 14747.38 END
ALLBW_FIB_BGP_GRAPH 0.6 6851.84 END

Testing on Transit seed 2
numpathcap: 10
percent passthrough ases:
0.0
[]
[]
12345678910111213141516171819202122232425262728WISER_RIB_GRAPH 0.6 NaN END
WISER_FIB_GRAPH 0.6 NaN END
ALLWISER_RIB_GRAPH 0.6 234387.31 END
ALLWISER_FIB_GRAPH 0.6 98399.16 END
BW_RIB_GRAPH 0.6 13183.45 END
BW_FIB_GRAPH 0.6 5980.067 END
ALLBW_RIB_GRAPH 0.6 13983.0 END
ALLBW_FIB_GRAPH 0.6 6309.62 END
REPLACEMENT_RIB_GRAPH 0.6 NaN END
REPLACEMENT_FIB_GRAPH 0.6 NaN END
REPLACEMENT_STUB_RIB_GRAPH 0.6 NaN END
REPLACEMENT_STUB_FIB_GRAPH 0.6 NaN END
[]
[]
12345678910111213141516171819202122232425262728WISER_RIB_BGP_GRAPH 0.6 NaN END
WISER_FIB_BGP_GRAPH 0.6 NaN END
ALLWISER_RIB_BGP_GRAPH 0.6 181507.88 END
ALLWISER_FIB_BGP_GRAPH 0.6 66991.04 END
BW_RIB_BGP_GRAPH 0.6 NaN END
BW_FIB_BPG_GRAPH 0.6 NaN END
ALLBW_RIB_BPG_GRAPH 0.6 14747.38 END
ALLBW_FIB_BGP_GRAPH 0.6 6851.84 END

Testing on Transit seed 3
numpathcap: 10
percent passthrough ases:
0.0
[]
[]
12345678910111213141516171819202122232425262728WISER_RIB_GRAPH 0.6 NaN END
WISER_FIB_GRAPH 0.6 NaN END
ALLWISER_RIB_GRAPH 0.6 238750.78 END
ALLWISER_FIB_GRAPH 0.6 98061.09 END
BW_RIB_GRAPH 0.6 14801.467 END
BW_FIB_GRAPH 0.6 6565.65 END
ALLBW_RIB_GRAPH 0.6 14040.75 END
ALLBW_FIB_GRAPH 0.6 6513.41 END
REPLACEMENT_RIB_GRAPH 0.6 NaN END
REPLACEMENT_FIB_GRAPH 0.6 NaN END
REPLACEMENT_STUB_RIB_GRAPH 0.6 NaN END
REPLACEMENT_STUB_FIB_GRAPH 0.6 NaN END
[]
[]
12345678910111213141516171819202122232425262728WISER_RIB_BGP_GRAPH 0.6 NaN END
WISER_FIB_BGP_GRAPH 0.6 NaN END
ALLWISER_RIB_BGP_GRAPH 0.6 181507.88 END
ALLWISER_FIB_BGP_GRAPH 0.6 66991.04 END
BW_RIB_BGP_GRAPH 0.6 NaN END
BW_FIB_BPG_GRAPH 0.6 NaN END
ALLBW_RIB_BPG_GRAPH 0.6 14747.38 END
ALLBW_FIB_BGP_GRAPH 0.6 6851.84 END

Testing for stub/transit percentage: 0.070000

Testing on Transit seed 1
numpathcap: 10
percent passthrough ases:
0.0
[]
[]
12345678910111213141516171819202122232425262728WISER_RIB_GRAPH 0.7 NaN END
WISER_FIB_GRAPH 0.7 NaN END
ALLWISER_RIB_GRAPH 0.7 254300.98 END
ALLWISER_FIB_GRAPH 0.7 108525.57 END
BW_RIB_GRAPH 0.7 12525.0 END
BW_FIB_GRAPH 0.7 5551.7573 END
ALLBW_RIB_GRAPH 0.7 13186.88 END
ALLBW_FIB_GRAPH 0.7 5795.78 END
REPLACEMENT_RIB_GRAPH 0.7 NaN END
REPLACEMENT_FIB_GRAPH 0.7 NaN END
REPLACEMENT_STUB_RIB_GRAPH 0.7 NaN END
REPLACEMENT_STUB_FIB_GRAPH 0.7 NaN END
[]
[]
12345678910111213141516171819202122232425262728WISER_RIB_BGP_GRAPH 0.7 NaN END
WISER_FIB_BGP_GRAPH 0.7 NaN END
ALLWISER_RIB_BGP_GRAPH 0.7 181507.88 END
ALLWISER_FIB_BGP_GRAPH 0.7 66991.04 END
BW_RIB_BGP_GRAPH 0.7 NaN END
BW_FIB_BPG_GRAPH 0.7 NaN END
ALLBW_RIB_BPG_GRAPH 0.7 14747.38 END
ALLBW_FIB_BGP_GRAPH 0.7 6851.84 END

Testing on Transit seed 2
numpathcap: 10
percent passthrough ases:
0.0
[]
[]
12345678910111213141516171819202122232425262728WISER_RIB_GRAPH 0.7 NaN END
WISER_FIB_GRAPH 0.7 NaN END
ALLWISER_RIB_GRAPH 0.7 249066.34 END
ALLWISER_FIB_GRAPH 0.7 104025.46 END
BW_RIB_GRAPH 0.7 14660.371 END
BW_FIB_GRAPH 0.7 6753.5713 END
ALLBW_RIB_GRAPH 0.7 14965.9 END
ALLBW_FIB_GRAPH 0.7 6802.64 END
REPLACEMENT_RIB_GRAPH 0.7 NaN END
REPLACEMENT_FIB_GRAPH 0.7 NaN END
REPLACEMENT_STUB_RIB_GRAPH 0.7 NaN END
REPLACEMENT_STUB_FIB_GRAPH 0.7 NaN END
[]
[]
12345678910111213141516171819202122232425262728WISER_RIB_BGP_GRAPH 0.7 NaN END
WISER_FIB_BGP_GRAPH 0.7 NaN END
ALLWISER_RIB_BGP_GRAPH 0.7 181507.88 END
ALLWISER_FIB_BGP_GRAPH 0.7 66991.04 END
BW_RIB_BGP_GRAPH 0.7 NaN END
BW_FIB_BPG_GRAPH 0.7 NaN END
ALLBW_RIB_BPG_GRAPH 0.7 14747.38 END
ALLBW_FIB_BGP_GRAPH 0.7 6851.84 END

Testing on Transit seed 3
numpathcap: 10
percent passthrough ases:
0.0
[]
[]
12345678910111213141516171819202122232425262728WISER_RIB_GRAPH 0.7 NaN END
WISER_FIB_GRAPH 0.7 NaN END
ALLWISER_RIB_GRAPH 0.7 249109.48 END
ALLWISER_FIB_GRAPH 0.7 104232.17 END
BW_RIB_GRAPH 0.7 14202.828 END
BW_FIB_GRAPH 0.7 6406.857 END
ALLBW_RIB_GRAPH 0.7 13853.91 END
ALLBW_FIB_GRAPH 0.7 6504.42 END
REPLACEMENT_RIB_GRAPH 0.7 NaN END
REPLACEMENT_FIB_GRAPH 0.7 NaN END
REPLACEMENT_STUB_RIB_GRAPH 0.7 NaN END
REPLACEMENT_STUB_FIB_GRAPH 0.7 NaN END
[]
[]
12345678910111213141516171819202122232425262728WISER_RIB_BGP_GRAPH 0.7 NaN END
WISER_FIB_BGP_GRAPH 0.7 NaN END
ALLWISER_RIB_BGP_GRAPH 0.7 181507.88 END
ALLWISER_FIB_BGP_GRAPH 0.7 66991.04 END
BW_RIB_BGP_GRAPH 0.7 NaN END
BW_FIB_BPG_GRAPH 0.7 NaN END
ALLBW_RIB_BPG_GRAPH 0.7 14747.38 END
ALLBW_FIB_BGP_GRAPH 0.7 6851.84 END

Testing for stub/transit percentage: 0.080000

Testing on Transit seed 1
numpathcap: 10
percent passthrough ases:
0.0
[]
[]
12345678910111213141516171819202122232425262728WISER_RIB_GRAPH 0.8 NaN END
WISER_FIB_GRAPH 0.8 NaN END
ALLWISER_RIB_GRAPH 0.8 292333.94 END
ALLWISER_FIB_GRAPH 0.8 129086.78 END
BW_RIB_GRAPH 0.8 14014.412 END
BW_FIB_GRAPH 0.8 6430.8 END
ALLBW_RIB_GRAPH 0.8 14356.09 END
ALLBW_FIB_GRAPH 0.8 6648.3 END
REPLACEMENT_RIB_GRAPH 0.8 NaN END
REPLACEMENT_FIB_GRAPH 0.8 NaN END
REPLACEMENT_STUB_RIB_GRAPH 0.8 NaN END
REPLACEMENT_STUB_FIB_GRAPH 0.8 NaN END
[]
[]
12345678910111213141516171819202122232425262728WISER_RIB_BGP_GRAPH 0.8 NaN END
WISER_FIB_BGP_GRAPH 0.8 NaN END
ALLWISER_RIB_BGP_GRAPH 0.8 181507.88 END
ALLWISER_FIB_BGP_GRAPH 0.8 66991.04 END
BW_RIB_BGP_GRAPH 0.8 NaN END
BW_FIB_BPG_GRAPH 0.8 NaN END
ALLBW_RIB_BPG_GRAPH 0.8 14747.38 END
ALLBW_FIB_BGP_GRAPH 0.8 6851.84 END

Testing on Transit seed 2
numpathcap: 10
percent passthrough ases:
0.0
[]
[]
12345678910111213141516171819202122232425262728WISER_RIB_GRAPH 0.8 NaN END
WISER_FIB_GRAPH 0.8 NaN END
ALLWISER_RIB_GRAPH 0.8 305480.62 END
ALLWISER_FIB_GRAPH 0.8 135692.02 END
BW_RIB_GRAPH 0.8 14363.125 END
BW_FIB_GRAPH 0.8 6871.3374 END
ALLBW_RIB_GRAPH 0.8 14511.58 END
ALLBW_FIB_GRAPH 0.8 6852.99 END
REPLACEMENT_RIB_GRAPH 0.8 NaN END
REPLACEMENT_FIB_GRAPH 0.8 NaN END
REPLACEMENT_STUB_RIB_GRAPH 0.8 NaN END
REPLACEMENT_STUB_FIB_GRAPH 0.8 NaN END
[]
[]
12345678910111213141516171819202122232425262728WISER_RIB_BGP_GRAPH 0.8 NaN END
WISER_FIB_BGP_GRAPH 0.8 NaN END
ALLWISER_RIB_BGP_GRAPH 0.8 181507.88 END
ALLWISER_FIB_BGP_GRAPH 0.8 66991.04 END
BW_RIB_BGP_GRAPH 0.8 NaN END
BW_FIB_BPG_GRAPH 0.8 NaN END
ALLBW_RIB_BPG_GRAPH 0.8 14747.38 END
ALLBW_FIB_BGP_GRAPH 0.8 6851.84 END

Testing on Transit seed 3
numpathcap: 10
percent passthrough ases:
0.0
[]
[]
12345678910111213141516171819202122232425262728WISER_RIB_GRAPH 0.8 NaN END
WISER_FIB_GRAPH 0.8 NaN END
ALLWISER_RIB_GRAPH 0.8 255180.58 END
ALLWISER_FIB_GRAPH 0.8 108821.06 END
BW_RIB_GRAPH 0.8 13657.162 END
BW_FIB_GRAPH 0.8 6306.95 END
ALLBW_RIB_GRAPH 0.8 13724.45 END
ALLBW_FIB_GRAPH 0.8 6417.57 END
REPLACEMENT_RIB_GRAPH 0.8 NaN END
REPLACEMENT_FIB_GRAPH 0.8 NaN END
REPLACEMENT_STUB_RIB_GRAPH 0.8 NaN END
REPLACEMENT_STUB_FIB_GRAPH 0.8 NaN END
[]
[]
12345678910111213141516171819202122232425262728WISER_RIB_BGP_GRAPH 0.8 NaN END
WISER_FIB_BGP_GRAPH 0.8 NaN END
ALLWISER_RIB_BGP_GRAPH 0.8 181507.88 END
ALLWISER_FIB_BGP_GRAPH 0.8 66991.04 END
BW_RIB_BGP_GRAPH 0.8 NaN END
BW_FIB_BPG_GRAPH 0.8 NaN END
ALLBW_RIB_BPG_GRAPH 0.8 14747.38 END
ALLBW_FIB_BGP_GRAPH 0.8 6851.84 END

Testing for stub/transit percentage: 0.090000

Testing on Transit seed 1
numpathcap: 10
percent passthrough ases:
0.0
[]
[]
12345678910111213141516171819202122232425262728WISER_RIB_GRAPH 0.9 NaN END
WISER_FIB_GRAPH 0.9 NaN END
ALLWISER_RIB_GRAPH 0.9 280055.88 END
ALLWISER_FIB_GRAPH 0.9 122698.98 END
BW_RIB_GRAPH 0.9 15295.0 END
BW_FIB_GRAPH 0.9 7506.0776 END
ALLBW_RIB_GRAPH 0.9 15430.11 END
ALLBW_FIB_GRAPH 0.9 7518.93 END
REPLACEMENT_RIB_GRAPH 0.9 NaN END
REPLACEMENT_FIB_GRAPH 0.9 NaN END
REPLACEMENT_STUB_RIB_GRAPH 0.9 NaN END
REPLACEMENT_STUB_FIB_GRAPH 0.9 NaN END
[]
[]
12345678910111213141516171819202122232425262728WISER_RIB_BGP_GRAPH 0.9 NaN END
WISER_FIB_BGP_GRAPH 0.9 NaN END
ALLWISER_RIB_BGP_GRAPH 0.9 181507.88 END
ALLWISER_FIB_BGP_GRAPH 0.9 66991.04 END
BW_RIB_BGP_GRAPH 0.9 NaN END
BW_FIB_BPG_GRAPH 0.9 NaN END
ALLBW_RIB_BPG_GRAPH 0.9 14747.38 END
ALLBW_FIB_BGP_GRAPH 0.9 6851.84 END

Testing on Transit seed 2
numpathcap: 10
percent passthrough ases:
0.0
[]
[]
12345678910111213141516171819202122232425262728WISER_RIB_GRAPH 0.9 NaN END
WISER_FIB_GRAPH 0.9 NaN END
ALLWISER_RIB_GRAPH 0.9 314630.72 END
ALLWISER_FIB_GRAPH 0.9 141263.6 END
BW_RIB_GRAPH 0.9 15358.478 END
BW_FIB_GRAPH 0.9 7109.533 END
ALLBW_RIB_GRAPH 0.9 15462.54 END
ALLBW_FIB_GRAPH 0.9 7202.88 END
REPLACEMENT_RIB_GRAPH 0.9 NaN END
REPLACEMENT_FIB_GRAPH 0.9 NaN END
REPLACEMENT_STUB_RIB_GRAPH 0.9 NaN END
REPLACEMENT_STUB_FIB_GRAPH 0.9 NaN END
[]
[]
12345678910111213141516171819202122232425262728WISER_RIB_BGP_GRAPH 0.9 NaN END
WISER_FIB_BGP_GRAPH 0.9 NaN END
ALLWISER_RIB_BGP_GRAPH 0.9 181507.88 END
ALLWISER_FIB_BGP_GRAPH 0.9 66991.04 END
BW_RIB_BGP_GRAPH 0.9 NaN END
BW_FIB_BPG_GRAPH 0.9 NaN END
ALLBW_RIB_BPG_GRAPH 0.9 14747.38 END
ALLBW_FIB_BGP_GRAPH 0.9 6851.84 END

Testing on Transit seed 3
numpathcap: 10
percent passthrough ases:
0.0
[]
[]
12345678910111213141516171819202122232425262728WISER_RIB_GRAPH 0.9 NaN END
WISER_FIB_GRAPH 0.9 NaN END
ALLWISER_RIB_GRAPH 0.9 259949.08 END
ALLWISER_FIB_GRAPH 0.9 110817.1 END
BW_RIB_GRAPH 0.9 14640.111 END
BW_FIB_GRAPH 0.9 6989.6 END
ALLBW_RIB_GRAPH 0.9 14834.01 END
ALLBW_FIB_GRAPH 0.9 7114.2 END
REPLACEMENT_RIB_GRAPH 0.9 NaN END
REPLACEMENT_FIB_GRAPH 0.9 NaN END
REPLACEMENT_STUB_RIB_GRAPH 0.9 NaN END
REPLACEMENT_STUB_FIB_GRAPH 0.9 NaN END
[]
[]
12345678910111213141516171819202122232425262728WISER_RIB_BGP_GRAPH 0.9 NaN END
WISER_FIB_BGP_GRAPH 0.9 NaN END
ALLWISER_RIB_BGP_GRAPH 0.9 181507.88 END
ALLWISER_FIB_BGP_GRAPH 0.9 66991.04 END
BW_RIB_BGP_GRAPH 0.9 NaN END
BW_FIB_BPG_GRAPH 0.9 NaN END
ALLBW_RIB_BPG_GRAPH 0.9 14747.38 END
ALLBW_FIB_BGP_GRAPH 0.9 6851.84 END
numpathcap: 10
percent passthrough ases:
0.0
[]
[]
12345678910111213141516171819202122232425262728WISER_RIB_GRAPH 1.0 NaN END
WISER_FIB_GRAPH 1.0 NaN END
ALLWISER_RIB_GRAPH 1.0 251084.98 END
ALLWISER_FIB_GRAPH 1.0 104928.19 END
BW_RIB_GRAPH 1.0 19022.17 END
BW_FIB_GRAPH 1.0 9718.88 END
ALLBW_RIB_GRAPH 1.0 19022.17 END
ALLBW_FIB_GRAPH 1.0 9718.88 END
REPLACEMENT_RIB_GRAPH 1.0 NaN END
REPLACEMENT_FIB_GRAPH 1.0 NaN END
REPLACEMENT_STUB_RIB_GRAPH 1.0 NaN END
REPLACEMENT_STUB_FIB_GRAPH 1.0 NaN END
[]
[]
12345678910111213141516171819202122232425262728WISER_RIB_BGP_GRAPH 1.0 NaN END
WISER_FIB_BGP_GRAPH 1.0 NaN END
ALLWISER_RIB_BGP_GRAPH 1.0 181507.88 END
ALLWISER_FIB_BGP_GRAPH 1.0 66991.04 END
BW_RIB_BGP_GRAPH 1.0 NaN END
BW_FIB_BPG_GRAPH 1.0 NaN END
ALLBW_RIB_BPG_GRAPH 1.0 14747.38 END
ALLBW_FIB_BGP_GRAPH 1.0 6851.84 END
