arg1 is the astypes to generate, 501-wiser, 504 sbgp, 505 bw 507 replacement
arg2 is where to monitor in the simulator, participating 0, all 1, gulf 2
arg3 is max number of propagated paths
arg4 is the random method, 0 for pool, 1 for weigthed, 2 for uniform
arg5 is the legend name
arg6 is whether to perfomr richworld
arg7 is the percentage of ases with passthrough enabled
505 1 10 2 0.75 passthrough 0 .75astypes.txt
LEGEND 0.75 passthrough ENDLEGEND\n

Testing for stub/transit percentage: 0.010000

Testing on Transit seed 1
numpathcap: 10
percent passthrough ases:
0.75
[96, 83, 36, 37, 72, 25, 28, 46]
[0, 1, 2, 3, 4, 5, 6, 8, 10, 13, 14, 15, 16, 17, 19, 20, 21, 22, 24, 25, 26, 28, 29, 31, 32, 33, 34, 36, 37, 41, 43, 45, 47, 48, 50, 51, 52, 53, 54, 55, 56, 57, 58, 59, 60, 62, 63, 65, 66, 67, 69, 71, 73, 74, 75, 76, 77, 78, 79, 80, 83, 84, 85, 86, 87, 88, 89, 90, 92, 94, 95, 96, 97, 98, 99]
12345678910111213141516171819202122232425262728WISER_RIB_GRAPH 0.1 NaN END
WISER_FIB_GRAPH 0.1 NaN END
ALLWISER_RIB_GRAPH 0.1 185421.8 END
ALLWISER_FIB_GRAPH 0.1 69583.97 END
BW_RIB_GRAPH 0.1 12948.9 END
BW_FIB_GRAPH 0.1 5339.5 END
ALLBW_RIB_GRAPH 0.1 14549.75 END
ALLBW_FIB_GRAPH 0.1 6728.55 END
REPLACEMENT_RIB_GRAPH 0.1 NaN END
REPLACEMENT_FIB_GRAPH 0.1 NaN END
REPLACEMENT_STUB_RIB_GRAPH 0.1 NaN END
REPLACEMENT_STUB_FIB_GRAPH 0.1 NaN END
[96, 83, 36, 37, 72, 25, 28, 46]
[0, 1, 2, 3, 4, 5, 6, 8, 10, 13, 14, 15, 16, 17, 19, 20, 21, 22, 24, 25, 26, 28, 29, 31, 32, 33, 34, 36, 37, 41, 43, 45, 47, 48, 50, 51, 52, 53, 54, 55, 56, 57, 58, 59, 60, 62, 63, 65, 66, 67, 69, 71, 73, 74, 75, 76, 77, 78, 79, 80, 83, 84, 85, 86, 87, 88, 89, 90, 92, 94, 95, 96, 97, 98, 99]
12345678910111213141516171819202122232425262728WISER_RIB_BGP_GRAPH 0.1 NaN END
WISER_FIB_BGP_GRAPH 0.1 NaN END
ALLWISER_RIB_BGP_GRAPH 0.1 181507.88 END
ALLWISER_FIB_BGP_GRAPH 0.1 66991.04 END
BW_RIB_BGP_GRAPH 0.1 NaN END
BW_FIB_BPG_GRAPH 0.1 NaN END
ALLBW_RIB_BPG_GRAPH 0.1 14747.38 END
ALLBW_FIB_BGP_GRAPH 0.1 6851.84 END

Testing on Transit seed 2
numpathcap: 10
percent passthrough ases:
0.75
[40, 89, 25, 75, 92, 93, 31, 95]
[0, 1, 2, 3, 4, 5, 6, 8, 10, 13, 14, 15, 16, 17, 19, 20, 21, 22, 24, 25, 26, 28, 29, 31, 32, 33, 34, 36, 37, 41, 43, 45, 47, 48, 50, 51, 52, 53, 54, 55, 56, 57, 58, 59, 60, 62, 63, 65, 66, 67, 69, 71, 73, 74, 75, 76, 77, 78, 79, 80, 83, 84, 85, 86, 87, 88, 89, 90, 92, 94, 95, 96, 97, 98, 99]
12345678910111213141516171819202122232425262728WISER_RIB_GRAPH 0.1 NaN END
WISER_FIB_GRAPH 0.1 NaN END
ALLWISER_RIB_GRAPH 0.1 196373.4 END
ALLWISER_FIB_GRAPH 0.1 73861.5 END
BW_RIB_GRAPH 0.1 14436.7 END
BW_FIB_GRAPH 0.1 5411.4 END
ALLBW_RIB_GRAPH 0.1 13579.95 END
ALLBW_FIB_GRAPH 0.1 6378.9 END
REPLACEMENT_RIB_GRAPH 0.1 NaN END
REPLACEMENT_FIB_GRAPH 0.1 NaN END
REPLACEMENT_STUB_RIB_GRAPH 0.1 NaN END
REPLACEMENT_STUB_FIB_GRAPH 0.1 NaN END
[40, 89, 25, 75, 92, 93, 31, 95]
[0, 1, 2, 3, 4, 5, 6, 8, 10, 13, 14, 15, 16, 17, 19, 20, 21, 22, 24, 25, 26, 28, 29, 31, 32, 33, 34, 36, 37, 41, 43, 45, 47, 48, 50, 51, 52, 53, 54, 55, 56, 57, 58, 59, 60, 62, 63, 65, 66, 67, 69, 71, 73, 74, 75, 76, 77, 78, 79, 80, 83, 84, 85, 86, 87, 88, 89, 90, 92, 94, 95, 96, 97, 98, 99]
12345678910111213141516171819202122232425262728WISER_RIB_BGP_GRAPH 0.1 NaN END
WISER_FIB_BGP_GRAPH 0.1 NaN END
ALLWISER_RIB_BGP_GRAPH 0.1 181507.88 END
ALLWISER_FIB_BGP_GRAPH 0.1 66991.04 END
BW_RIB_BGP_GRAPH 0.1 NaN END
BW_FIB_BPG_GRAPH 0.1 NaN END
ALLBW_RIB_BPG_GRAPH 0.1 14747.38 END
ALLBW_FIB_BGP_GRAPH 0.1 6851.84 END

Testing on Transit seed 3
numpathcap: 10
percent passthrough ases:
0.75
[18, 35, 21, 54, 27, 11, 77, 63]
[0, 1, 2, 3, 4, 5, 6, 8, 10, 13, 14, 15, 16, 17, 19, 20, 21, 22, 24, 25, 26, 28, 29, 31, 32, 33, 34, 36, 37, 41, 43, 45, 47, 48, 50, 51, 52, 53, 54, 55, 56, 57, 58, 59, 60, 62, 63, 65, 66, 67, 69, 71, 73, 74, 75, 76, 77, 78, 79, 80, 83, 84, 85, 86, 87, 88, 89, 90, 92, 94, 95, 96, 97, 98, 99]
12345678910111213141516171819202122232425262728WISER_RIB_GRAPH 0.1 NaN END
WISER_FIB_GRAPH 0.1 NaN END
ALLWISER_RIB_GRAPH 0.1 189284.45 END
ALLWISER_FIB_GRAPH 0.1 70985.67 END
BW_RIB_GRAPH 0.1 17074.0 END
BW_FIB_GRAPH 0.1 7012.9 END
ALLBW_RIB_GRAPH 0.1 14559.51 END
ALLBW_FIB_GRAPH 0.1 6608.63 END
REPLACEMENT_RIB_GRAPH 0.1 NaN END
REPLACEMENT_FIB_GRAPH 0.1 NaN END
REPLACEMENT_STUB_RIB_GRAPH 0.1 NaN END
REPLACEMENT_STUB_FIB_GRAPH 0.1 NaN END
[18, 35, 21, 54, 27, 11, 77, 63]
[0, 1, 2, 3, 4, 5, 6, 8, 10, 13, 14, 15, 16, 17, 19, 20, 21, 22, 24, 25, 26, 28, 29, 31, 32, 33, 34, 36, 37, 41, 43, 45, 47, 48, 50, 51, 52, 53, 54, 55, 56, 57, 58, 59, 60, 62, 63, 65, 66, 67, 69, 71, 73, 74, 75, 76, 77, 78, 79, 80, 83, 84, 85, 86, 87, 88, 89, 90, 92, 94, 95, 96, 97, 98, 99]
12345678910111213141516171819202122232425262728WISER_RIB_BGP_GRAPH 0.1 NaN END
WISER_FIB_BGP_GRAPH 0.1 NaN END
ALLWISER_RIB_BGP_GRAPH 0.1 181507.88 END
ALLWISER_FIB_BGP_GRAPH 0.1 66991.04 END
BW_RIB_BGP_GRAPH 0.1 NaN END
BW_FIB_BPG_GRAPH 0.1 NaN END
ALLBW_RIB_BPG_GRAPH 0.1 14747.38 END
ALLBW_FIB_BGP_GRAPH 0.1 6851.84 END

Testing for stub/transit percentage: 0.020000

Testing on Transit seed 1
numpathcap: 10
percent passthrough ases:
0.75
[36, 37, 6, 72, 40, 74, 10, 43, 14, 83, 54, 25, 90, 91, 28]
[0, 1, 2, 3, 4, 5, 6, 8, 10, 13, 14, 15, 16, 17, 19, 20, 21, 22, 24, 25, 26, 28, 29, 31, 32, 33, 34, 36, 37, 41, 43, 45, 47, 48, 50, 51, 52, 53, 54, 55, 56, 57, 58, 59, 60, 62, 63, 65, 66, 67, 69, 71, 73, 74, 75, 76, 77, 78, 79, 80, 83, 84, 85, 86, 87, 88, 89, 90, 92, 94, 95, 96, 97, 98, 99]
12345678910111213141516171819202122232425262728WISER_RIB_GRAPH 0.2 NaN END
WISER_FIB_GRAPH 0.2 NaN END
ALLWISER_RIB_GRAPH 0.2 201619.92 END
ALLWISER_FIB_GRAPH 0.2 76165.01 END
BW_RIB_GRAPH 0.2 13677.8 END
BW_FIB_GRAPH 0.2 5345.25 END
ALLBW_RIB_GRAPH 0.2 13075.91 END
ALLBW_FIB_GRAPH 0.2 6095.05 END
REPLACEMENT_RIB_GRAPH 0.2 NaN END
REPLACEMENT_FIB_GRAPH 0.2 NaN END
REPLACEMENT_STUB_RIB_GRAPH 0.2 NaN END
REPLACEMENT_STUB_FIB_GRAPH 0.2 NaN END
[36, 37, 6, 72, 40, 74, 10, 43, 14, 83, 54, 25, 90, 91, 28]
[0, 1, 2, 3, 4, 5, 6, 8, 10, 13, 14, 15, 16, 17, 19, 20, 21, 22, 24, 25, 26, 28, 29, 31, 32, 33, 34, 36, 37, 41, 43, 45, 47, 48, 50, 51, 52, 53, 54, 55, 56, 57, 58, 59, 60, 62, 63, 65, 66, 67, 69, 71, 73, 74, 75, 76, 77, 78, 79, 80, 83, 84, 85, 86, 87, 88, 89, 90, 92, 94, 95, 96, 97, 98, 99]
12345678910111213141516171819202122232425262728WISER_RIB_BGP_GRAPH 0.2 NaN END
WISER_FIB_BGP_GRAPH 0.2 NaN END
ALLWISER_RIB_BGP_GRAPH 0.2 181507.88 END
ALLWISER_FIB_BGP_GRAPH 0.2 66991.04 END
BW_RIB_BGP_GRAPH 0.2 NaN END
BW_FIB_BPG_GRAPH 0.2 NaN END
ALLBW_RIB_BPG_GRAPH 0.2 14747.38 END
ALLBW_FIB_BGP_GRAPH 0.2 6851.84 END

Testing on Transit seed 2
numpathcap: 10
percent passthrough ases:
0.75
[36, 40, 74, 75, 77, 47, 15, 50, 18, 53, 25, 89, 92, 93, 31]
[0, 1, 2, 3, 4, 5, 6, 8, 10, 13, 14, 15, 16, 17, 19, 20, 21, 22, 24, 25, 26, 28, 29, 31, 32, 33, 34, 36, 37, 41, 43, 45, 47, 48, 50, 51, 52, 53, 54, 55, 56, 57, 58, 59, 60, 62, 63, 65, 66, 67, 69, 71, 73, 74, 75, 76, 77, 78, 79, 80, 83, 84, 85, 86, 87, 88, 89, 90, 92, 94, 95, 96, 97, 98, 99]
12345678910111213141516171819202122232425262728WISER_RIB_GRAPH 0.2 NaN END
WISER_FIB_GRAPH 0.2 NaN END
ALLWISER_RIB_GRAPH 0.2 195825.3 END
ALLWISER_FIB_GRAPH 0.2 75100.23 END
BW_RIB_GRAPH 0.2 13235.25 END
BW_FIB_GRAPH 0.2 5568.6 END
ALLBW_RIB_GRAPH 0.2 13671.86 END
ALLBW_FIB_GRAPH 0.2 6359.89 END
REPLACEMENT_RIB_GRAPH 0.2 NaN END
REPLACEMENT_FIB_GRAPH 0.2 NaN END
REPLACEMENT_STUB_RIB_GRAPH 0.2 NaN END
REPLACEMENT_STUB_FIB_GRAPH 0.2 NaN END
[36, 40, 74, 75, 77, 47, 15, 50, 18, 53, 25, 89, 92, 93, 31]
[0, 1, 2, 3, 4, 5, 6, 8, 10, 13, 14, 15, 16, 17, 19, 20, 21, 22, 24, 25, 26, 28, 29, 31, 32, 33, 34, 36, 37, 41, 43, 45, 47, 48, 50, 51, 52, 53, 54, 55, 56, 57, 58, 59, 60, 62, 63, 65, 66, 67, 69, 71, 73, 74, 75, 76, 77, 78, 79, 80, 83, 84, 85, 86, 87, 88, 89, 90, 92, 94, 95, 96, 97, 98, 99]
12345678910111213141516171819202122232425262728WISER_RIB_BGP_GRAPH 0.2 NaN END
WISER_FIB_BGP_GRAPH 0.2 NaN END
ALLWISER_RIB_BGP_GRAPH 0.2 181507.88 END
ALLWISER_FIB_BGP_GRAPH 0.2 66991.04 END
BW_RIB_BGP_GRAPH 0.2 NaN END
BW_FIB_BPG_GRAPH 0.2 NaN END
ALLBW_RIB_BPG_GRAPH 0.2 14747.38 END
ALLBW_FIB_BGP_GRAPH 0.2 6851.84 END

Testing on Transit seed 3
numpathcap: 10
percent passthrough ases:
0.75
[96, 35, 36, 37, 10, 11, 77, 18, 82, 20, 21, 56, 27, 59, 63]
[0, 1, 2, 3, 4, 5, 6, 8, 10, 13, 14, 15, 16, 17, 19, 20, 21, 22, 24, 25, 26, 28, 29, 31, 32, 33, 34, 36, 37, 41, 43, 45, 47, 48, 50, 51, 52, 53, 54, 55, 56, 57, 58, 59, 60, 62, 63, 65, 66, 67, 69, 71, 73, 74, 75, 76, 77, 78, 79, 80, 83, 84, 85, 86, 87, 88, 89, 90, 92, 94, 95, 96, 97, 98, 99]
12345678910111213141516171819202122232425262728WISER_RIB_GRAPH 0.2 NaN END
WISER_FIB_GRAPH 0.2 NaN END
ALLWISER_RIB_GRAPH 0.2 190499.56 END
ALLWISER_FIB_GRAPH 0.2 72931.88 END
BW_RIB_GRAPH 0.2 14738.5 END
BW_FIB_GRAPH 0.2 5691.35 END
ALLBW_RIB_GRAPH 0.2 14362.49 END
ALLBW_FIB_GRAPH 0.2 6561.24 END
REPLACEMENT_RIB_GRAPH 0.2 NaN END
REPLACEMENT_FIB_GRAPH 0.2 NaN END
REPLACEMENT_STUB_RIB_GRAPH 0.2 NaN END
REPLACEMENT_STUB_FIB_GRAPH 0.2 NaN END
[96, 35, 36, 37, 10, 11, 77, 18, 82, 20, 21, 56, 27, 59, 63]
[0, 1, 2, 3, 4, 5, 6, 8, 10, 13, 14, 15, 16, 17, 19, 20, 21, 22, 24, 25, 26, 28, 29, 31, 32, 33, 34, 36, 37, 41, 43, 45, 47, 48, 50, 51, 52, 53, 54, 55, 56, 57, 58, 59, 60, 62, 63, 65, 66, 67, 69, 71, 73, 74, 75, 76, 77, 78, 79, 80, 83, 84, 85, 86, 87, 88, 89, 90, 92, 94, 95, 96, 97, 98, 99]
12345678910111213141516171819202122232425262728WISER_RIB_BGP_GRAPH 0.2 NaN END
WISER_FIB_BGP_GRAPH 0.2 NaN END
ALLWISER_RIB_BGP_GRAPH 0.2 181507.88 END
ALLWISER_FIB_BGP_GRAPH 0.2 66991.04 END
BW_RIB_BGP_GRAPH 0.2 NaN END
BW_FIB_BPG_GRAPH 0.2 NaN END
ALLBW_RIB_BPG_GRAPH 0.2 14747.38 END
ALLBW_FIB_BGP_GRAPH 0.2 6851.84 END

Testing for stub/transit percentage: 0.030000

Testing on Transit seed 1
numpathcap: 10
percent passthrough ases:
0.75
[96, 0, 98, 36, 37, 6, 40, 72, 10, 74, 43, 12, 46, 48, 83, 21, 54, 23, 90, 91, 92, 28, 31]
[0, 1, 2, 3, 4, 5, 6, 8, 10, 13, 14, 15, 16, 17, 19, 20, 21, 22, 24, 25, 26, 28, 29, 31, 32, 33, 34, 36, 37, 41, 43, 45, 47, 48, 50, 51, 52, 53, 54, 55, 56, 57, 58, 59, 60, 62, 63, 65, 66, 67, 69, 71, 73, 74, 75, 76, 77, 78, 79, 80, 83, 84, 85, 86, 87, 88, 89, 90, 92, 94, 95, 96, 97, 98, 99]
12345678910111213141516171819202122232425262728WISER_RIB_GRAPH 0.3 NaN END
WISER_FIB_GRAPH 0.3 NaN END
ALLWISER_RIB_GRAPH 0.3 207320.7 END
ALLWISER_FIB_GRAPH 0.3 79887.99 END
BW_RIB_GRAPH 0.3 13666.0 END
BW_FIB_GRAPH 0.3 5679.933 END
ALLBW_RIB_GRAPH 0.3 13510.13 END
ALLBW_FIB_GRAPH 0.3 6173.63 END
REPLACEMENT_RIB_GRAPH 0.3 NaN END
REPLACEMENT_FIB_GRAPH 0.3 NaN END
REPLACEMENT_STUB_RIB_GRAPH 0.3 NaN END
REPLACEMENT_STUB_FIB_GRAPH 0.3 NaN END
[96, 0, 98, 36, 37, 6, 40, 72, 10, 74, 43, 12, 46, 48, 83, 21, 54, 23, 90, 91, 92, 28, 31]
[0, 1, 2, 3, 4, 5, 6, 8, 10, 13, 14, 15, 16, 17, 19, 20, 21, 22, 24, 25, 26, 28, 29, 31, 32, 33, 34, 36, 37, 41, 43, 45, 47, 48, 50, 51, 52, 53, 54, 55, 56, 57, 58, 59, 60, 62, 63, 65, 66, 67, 69, 71, 73, 74, 75, 76, 77, 78, 79, 80, 83, 84, 85, 86, 87, 88, 89, 90, 92, 94, 95, 96, 97, 98, 99]
12345678910111213141516171819202122232425262728WISER_RIB_BGP_GRAPH 0.3 NaN END
WISER_FIB_BGP_GRAPH 0.3 NaN END
ALLWISER_RIB_BGP_GRAPH 0.3 181507.88 END
ALLWISER_FIB_BGP_GRAPH 0.3 66991.04 END
BW_RIB_BGP_GRAPH 0.3 NaN END
BW_FIB_BPG_GRAPH 0.3 NaN END
ALLBW_RIB_BPG_GRAPH 0.3 14747.38 END
ALLBW_FIB_BGP_GRAPH 0.3 6851.84 END

Testing on Transit seed 2
numpathcap: 10
percent passthrough ases:
0.75
[0, 67, 37, 40, 77, 14, 15, 47, 18, 50, 51, 53, 54, 88, 25, 89, 58, 92, 60, 93, 31, 63, 95]
[0, 1, 2, 3, 4, 5, 6, 8, 10, 13, 14, 15, 16, 17, 19, 20, 21, 22, 24, 25, 26, 28, 29, 31, 32, 33, 34, 36, 37, 41, 43, 45, 47, 48, 50, 51, 52, 53, 54, 55, 56, 57, 58, 59, 60, 62, 63, 65, 66, 67, 69, 71, 73, 74, 75, 76, 77, 78, 79, 80, 83, 84, 85, 86, 87, 88, 89, 90, 92, 94, 95, 96, 97, 98, 99]
12345678910111213141516171819202122232425262728WISER_RIB_GRAPH 0.3 NaN END
WISER_FIB_GRAPH 0.3 NaN END
ALLWISER_RIB_GRAPH 0.3 198149.81 END
ALLWISER_FIB_GRAPH 0.3 77302.39 END
BW_RIB_GRAPH 0.3 12179.9 END
BW_FIB_GRAPH 0.3 5197.067 END
ALLBW_RIB_GRAPH 0.3 13381.52 END
ALLBW_FIB_GRAPH 0.3 6105.57 END
REPLACEMENT_RIB_GRAPH 0.3 NaN END
REPLACEMENT_FIB_GRAPH 0.3 NaN END
REPLACEMENT_STUB_RIB_GRAPH 0.3 NaN END
REPLACEMENT_STUB_FIB_GRAPH 0.3 NaN END
[0, 67, 37, 40, 77, 14, 15, 47, 18, 50, 51, 53, 54, 88, 25, 89, 58, 92, 60, 93, 31, 63, 95]
[0, 1, 2, 3, 4, 5, 6, 8, 10, 13, 14, 15, 16, 17, 19, 20, 21, 22, 24, 25, 26, 28, 29, 31, 32, 33, 34, 36, 37, 41, 43, 45, 47, 48, 50, 51, 52, 53, 54, 55, 56, 57, 58, 59, 60, 62, 63, 65, 66, 67, 69, 71, 73, 74, 75, 76, 77, 78, 79, 80, 83, 84, 85, 86, 87, 88, 89, 90, 92, 94, 95, 96, 97, 98, 99]
12345678910111213141516171819202122232425262728WISER_RIB_BGP_GRAPH 0.3 NaN END
WISER_FIB_BGP_GRAPH 0.3 NaN END
ALLWISER_RIB_BGP_GRAPH 0.3 181507.88 END
ALLWISER_FIB_BGP_GRAPH 0.3 66991.04 END
BW_RIB_BGP_GRAPH 0.3 NaN END
BW_FIB_BPG_GRAPH 0.3 NaN END
ALLBW_RIB_BPG_GRAPH 0.3 14747.38 END
ALLBW_FIB_BGP_GRAPH 0.3 6851.84 END

Testing on Transit seed 3
numpathcap: 10
percent passthrough ases:
0.75
[96, 97, 36, 4, 37, 8, 72, 73, 10, 11, 77, 20, 21, 85, 54, 87, 56, 89, 90, 59, 27, 29, 63]
[0, 1, 2, 3, 4, 5, 6, 8, 10, 13, 14, 15, 16, 17, 19, 20, 21, 22, 24, 25, 26, 28, 29, 31, 32, 33, 34, 36, 37, 41, 43, 45, 47, 48, 50, 51, 52, 53, 54, 55, 56, 57, 58, 59, 60, 62, 63, 65, 66, 67, 69, 71, 73, 74, 75, 76, 77, 78, 79, 80, 83, 84, 85, 86, 87, 88, 89, 90, 92, 94, 95, 96, 97, 98, 99]
12345678910111213141516171819202122232425262728WISER_RIB_GRAPH 0.3 NaN END
WISER_FIB_GRAPH 0.3 NaN END
ALLWISER_RIB_GRAPH 0.3 203733.52 END
ALLWISER_FIB_GRAPH 0.3 78773.09 END
BW_RIB_GRAPH 0.3 14807.134 END
BW_FIB_GRAPH 0.3 5800.6333 END
ALLBW_RIB_GRAPH 0.3 14065.29 END
ALLBW_FIB_GRAPH 0.3 6484.39 END
REPLACEMENT_RIB_GRAPH 0.3 NaN END
REPLACEMENT_FIB_GRAPH 0.3 NaN END
REPLACEMENT_STUB_RIB_GRAPH 0.3 NaN END
REPLACEMENT_STUB_FIB_GRAPH 0.3 NaN END
[96, 97, 36, 4, 37, 8, 72, 73, 10, 11, 77, 20, 21, 85, 54, 87, 56, 89, 90, 59, 27, 29, 63]
[0, 1, 2, 3, 4, 5, 6, 8, 10, 13, 14, 15, 16, 17, 19, 20, 21, 22, 24, 25, 26, 28, 29, 31, 32, 33, 34, 36, 37, 41, 43, 45, 47, 48, 50, 51, 52, 53, 54, 55, 56, 57, 58, 59, 60, 62, 63, 65, 66, 67, 69, 71, 73, 74, 75, 76, 77, 78, 79, 80, 83, 84, 85, 86, 87, 88, 89, 90, 92, 94, 95, 96, 97, 98, 99]
12345678910111213141516171819202122232425262728WISER_RIB_BGP_GRAPH 0.3 NaN END
WISER_FIB_BGP_GRAPH 0.3 NaN END
ALLWISER_RIB_BGP_GRAPH 0.3 181507.88 END
ALLWISER_FIB_BGP_GRAPH 0.3 66991.04 END
BW_RIB_BGP_GRAPH 0.3 NaN END
BW_FIB_BPG_GRAPH 0.3 NaN END
ALLBW_RIB_BPG_GRAPH 0.3 14747.38 END
ALLBW_FIB_BGP_GRAPH 0.3 6851.84 END

Testing for stub/transit percentage: 0.040000

Testing on Transit seed 1
numpathcap: 10
percent passthrough ases:
0.75
[0, 5, 6, 72, 74, 76, 12, 14, 83, 84, 21, 85, 23, 25, 90, 91, 92, 31, 98, 36, 37, 40, 43, 46, 47, 48, 54, 56, 57, 59]
[0, 1, 2, 3, 4, 5, 6, 8, 10, 13, 14, 15, 16, 17, 19, 20, 21, 22, 24, 25, 26, 28, 29, 31, 32, 33, 34, 36, 37, 41, 43, 45, 47, 48, 50, 51, 52, 53, 54, 55, 56, 57, 58, 59, 60, 62, 63, 65, 66, 67, 69, 71, 73, 74, 75, 76, 77, 78, 79, 80, 83, 84, 85, 86, 87, 88, 89, 90, 92, 94, 95, 96, 97, 98, 99]
12345678910111213141516171819202122232425262728WISER_RIB_GRAPH 0.4 NaN END
WISER_FIB_GRAPH 0.4 NaN END
ALLWISER_RIB_GRAPH 0.4 211147.81 END
ALLWISER_FIB_GRAPH 0.4 82964.04 END
BW_RIB_GRAPH 0.4 13185.65 END
BW_FIB_GRAPH 0.4 5301.8 END
ALLBW_RIB_GRAPH 0.4 13138.01 END
ALLBW_FIB_GRAPH 0.4 5931.71 END
REPLACEMENT_RIB_GRAPH 0.4 NaN END
REPLACEMENT_FIB_GRAPH 0.4 NaN END
REPLACEMENT_STUB_RIB_GRAPH 0.4 NaN END
REPLACEMENT_STUB_FIB_GRAPH 0.4 NaN END
[0, 5, 6, 72, 74, 76, 12, 14, 83, 84, 21, 85, 23, 25, 90, 91, 92, 31, 98, 36, 37, 40, 43, 46, 47, 48, 54, 56, 57, 59]
[0, 1, 2, 3, 4, 5, 6, 8, 10, 13, 14, 15, 16, 17, 19, 20, 21, 22, 24, 25, 26, 28, 29, 31, 32, 33, 34, 36, 37, 41, 43, 45, 47, 48, 50, 51, 52, 53, 54, 55, 56, 57, 58, 59, 60, 62, 63, 65, 66, 67, 69, 71, 73, 74, 75, 76, 77, 78, 79, 80, 83, 84, 85, 86, 87, 88, 89, 90, 92, 94, 95, 96, 97, 98, 99]
12345678910111213141516171819202122232425262728WISER_RIB_BGP_GRAPH 0.4 NaN END
WISER_FIB_BGP_GRAPH 0.4 NaN END
ALLWISER_RIB_BGP_GRAPH 0.4 181507.88 END
ALLWISER_FIB_BGP_GRAPH 0.4 66991.04 END
BW_RIB_BGP_GRAPH 0.4 NaN END
BW_FIB_BPG_GRAPH 0.4 NaN END
ALLBW_RIB_BPG_GRAPH 0.4 14747.38 END
ALLBW_FIB_BGP_GRAPH 0.4 6851.84 END

Testing on Transit seed 2
numpathcap: 10
percent passthrough ases:
0.75
[0, 67, 74, 75, 13, 78, 14, 79, 16, 82, 18, 23, 88, 89, 25, 92, 31, 95, 35, 37, 40, 42, 44, 46, 47, 50, 53, 54, 56, 58]
[0, 1, 2, 3, 4, 5, 6, 8, 10, 13, 14, 15, 16, 17, 19, 20, 21, 22, 24, 25, 26, 28, 29, 31, 32, 33, 34, 36, 37, 41, 43, 45, 47, 48, 50, 51, 52, 53, 54, 55, 56, 57, 58, 59, 60, 62, 63, 65, 66, 67, 69, 71, 73, 74, 75, 76, 77, 78, 79, 80, 83, 84, 85, 86, 87, 88, 89, 90, 92, 94, 95, 96, 97, 98, 99]
12345678910111213141516171819202122232425262728WISER_RIB_GRAPH 0.4 NaN END
WISER_FIB_GRAPH 0.4 NaN END
ALLWISER_RIB_GRAPH 0.4 212944.23 END
ALLWISER_FIB_GRAPH 0.4 82405.29 END
BW_RIB_GRAPH 0.4 12648.575 END
BW_FIB_GRAPH 0.4 5446.55 END
ALLBW_RIB_GRAPH 0.4 13506.91 END
ALLBW_FIB_GRAPH 0.4 6194.67 END
REPLACEMENT_RIB_GRAPH 0.4 NaN END
REPLACEMENT_FIB_GRAPH 0.4 NaN END
REPLACEMENT_STUB_RIB_GRAPH 0.4 NaN END
REPLACEMENT_STUB_FIB_GRAPH 0.4 NaN END
[0, 67, 74, 75, 13, 78, 14, 79, 16, 82, 18, 23, 88, 89, 25, 92, 31, 95, 35, 37, 40, 42, 44, 46, 47, 50, 53, 54, 56, 58]
[0, 1, 2, 3, 4, 5, 6, 8, 10, 13, 14, 15, 16, 17, 19, 20, 21, 22, 24, 25, 26, 28, 29, 31, 32, 33, 34, 36, 37, 41, 43, 45, 47, 48, 50, 51, 52, 53, 54, 55, 56, 57, 58, 59, 60, 62, 63, 65, 66, 67, 69, 71, 73, 74, 75, 76, 77, 78, 79, 80, 83, 84, 85, 86, 87, 88, 89, 90, 92, 94, 95, 96, 97, 98, 99]
12345678910111213141516171819202122232425262728WISER_RIB_BGP_GRAPH 0.4 NaN END
WISER_FIB_BGP_GRAPH 0.4 NaN END
ALLWISER_RIB_BGP_GRAPH 0.4 181507.88 END
ALLWISER_FIB_BGP_GRAPH 0.4 66991.04 END
BW_RIB_BGP_GRAPH 0.4 NaN END
BW_FIB_BPG_GRAPH 0.4 NaN END
ALLBW_RIB_BPG_GRAPH 0.4 14747.38 END
ALLBW_FIB_BGP_GRAPH 0.4 6851.84 END

Testing on Transit seed 3
numpathcap: 10
percent passthrough ases:
0.75
[67, 4, 72, 8, 10, 79, 16, 18, 82, 20, 84, 21, 86, 87, 24, 89, 90, 92, 96, 98, 35, 37, 39, 40, 41, 45, 49, 54, 59, 63]
[0, 1, 2, 3, 4, 5, 6, 8, 10, 13, 14, 15, 16, 17, 19, 20, 21, 22, 24, 25, 26, 28, 29, 31, 32, 33, 34, 36, 37, 41, 43, 45, 47, 48, 50, 51, 52, 53, 54, 55, 56, 57, 58, 59, 60, 62, 63, 65, 66, 67, 69, 71, 73, 74, 75, 76, 77, 78, 79, 80, 83, 84, 85, 86, 87, 88, 89, 90, 92, 94, 95, 96, 97, 98, 99]
12345678910111213141516171819202122232425262728WISER_RIB_GRAPH 0.4 NaN END
WISER_FIB_GRAPH 0.4 NaN END
ALLWISER_RIB_GRAPH 0.4 205416.3 END
ALLWISER_FIB_GRAPH 0.4 80743.52 END
BW_RIB_GRAPH 0.4 14162.9 END
BW_FIB_GRAPH 0.4 6145.375 END
ALLBW_RIB_GRAPH 0.4 14114.42 END
ALLBW_FIB_GRAPH 0.4 6495.08 END
REPLACEMENT_RIB_GRAPH 0.4 NaN END
REPLACEMENT_FIB_GRAPH 0.4 NaN END
REPLACEMENT_STUB_RIB_GRAPH 0.4 NaN END
REPLACEMENT_STUB_FIB_GRAPH 0.4 NaN END
[67, 4, 72, 8, 10, 79, 16, 18, 82, 20, 84, 21, 86, 87, 24, 89, 90, 92, 96, 98, 35, 37, 39, 40, 41, 45, 49, 54, 59, 63]
[0, 1, 2, 3, 4, 5, 6, 8, 10, 13, 14, 15, 16, 17, 19, 20, 21, 22, 24, 25, 26, 28, 29, 31, 32, 33, 34, 36, 37, 41, 43, 45, 47, 48, 50, 51, 52, 53, 54, 55, 56, 57, 58, 59, 60, 62, 63, 65, 66, 67, 69, 71, 73, 74, 75, 76, 77, 78, 79, 80, 83, 84, 85, 86, 87, 88, 89, 90, 92, 94, 95, 96, 97, 98, 99]
12345678910111213141516171819202122232425262728WISER_RIB_BGP_GRAPH 0.4 NaN END
WISER_FIB_BGP_GRAPH 0.4 NaN END
ALLWISER_RIB_BGP_GRAPH 0.4 181507.88 END
ALLWISER_FIB_BGP_GRAPH 0.4 66991.04 END
BW_RIB_BGP_GRAPH 0.4 NaN END
BW_FIB_BPG_GRAPH 0.4 NaN END
ALLBW_RIB_BPG_GRAPH 0.4 14747.38 END
ALLBW_FIB_BGP_GRAPH 0.4 6851.84 END

Testing for stub/transit percentage: 0.050000

Testing on Transit seed 1
numpathcap: 10
percent passthrough ases:
0.75
[0, 67, 4, 69, 5, 6, 72, 8, 74, 10, 12, 14, 83, 20, 21, 23, 25, 26, 90, 91, 92, 30, 96, 33, 98, 35, 36, 40, 42, 43, 46, 47, 48, 49, 56, 57, 59, 61]
[0, 1, 2, 3, 4, 5, 6, 8, 10, 13, 14, 15, 16, 17, 19, 20, 21, 22, 24, 25, 26, 28, 29, 31, 32, 33, 34, 36, 37, 41, 43, 45, 47, 48, 50, 51, 52, 53, 54, 55, 56, 57, 58, 59, 60, 62, 63, 65, 66, 67, 69, 71, 73, 74, 75, 76, 77, 78, 79, 80, 83, 84, 85, 86, 87, 88, 89, 90, 92, 94, 95, 96, 97, 98, 99]
12345678910111213141516171819202122232425262728WISER_RIB_GRAPH 0.5 NaN END
WISER_FIB_GRAPH 0.5 NaN END
ALLWISER_RIB_GRAPH 0.5 218202.22 END
ALLWISER_FIB_GRAPH 0.5 86748.16 END
BW_RIB_GRAPH 0.5 13265.06 END
BW_FIB_GRAPH 0.5 5580.42 END
ALLBW_RIB_GRAPH 0.5 13376.02 END
ALLBW_FIB_GRAPH 0.5 6072.79 END
REPLACEMENT_RIB_GRAPH 0.5 NaN END
REPLACEMENT_FIB_GRAPH 0.5 NaN END
REPLACEMENT_STUB_RIB_GRAPH 0.5 NaN END
REPLACEMENT_STUB_FIB_GRAPH 0.5 NaN END
[0, 67, 4, 69, 5, 6, 72, 8, 74, 10, 12, 14, 83, 20, 21, 23, 25, 26, 90, 91, 92, 30, 96, 33, 98, 35, 36, 40, 42, 43, 46, 47, 48, 49, 56, 57, 59, 61]
[0, 1, 2, 3, 4, 5, 6, 8, 10, 13, 14, 15, 16, 17, 19, 20, 21, 22, 24, 25, 26, 28, 29, 31, 32, 33, 34, 36, 37, 41, 43, 45, 47, 48, 50, 51, 52, 53, 54, 55, 56, 57, 58, 59, 60, 62, 63, 65, 66, 67, 69, 71, 73, 74, 75, 76, 77, 78, 79, 80, 83, 84, 85, 86, 87, 88, 89, 90, 92, 94, 95, 96, 97, 98, 99]
12345678910111213141516171819202122232425262728WISER_RIB_BGP_GRAPH 0.5 NaN END
WISER_FIB_BGP_GRAPH 0.5 NaN END
ALLWISER_RIB_BGP_GRAPH 0.5 181507.88 END
ALLWISER_FIB_BGP_GRAPH 0.5 66991.04 END
BW_RIB_BGP_GRAPH 0.5 NaN END
BW_FIB_BPG_GRAPH 0.5 NaN END
ALLBW_RIB_BPG_GRAPH 0.5 14747.38 END
ALLBW_FIB_BGP_GRAPH 0.5 6851.84 END

Testing on Transit seed 2
numpathcap: 10
percent passthrough ases:
0.75
[0, 1, 2, 66, 67, 71, 7, 74, 75, 76, 13, 77, 14, 15, 16, 82, 18, 21, 23, 27, 91, 92, 93, 31, 95, 96, 34, 36, 40, 42, 47, 49, 50, 51, 53, 54, 56, 63]
[0, 1, 2, 3, 4, 5, 6, 8, 10, 13, 14, 15, 16, 17, 19, 20, 21, 22, 24, 25, 26, 28, 29, 31, 32, 33, 34, 36, 37, 41, 43, 45, 47, 48, 50, 51, 52, 53, 54, 55, 56, 57, 58, 59, 60, 62, 63, 65, 66, 67, 69, 71, 73, 74, 75, 76, 77, 78, 79, 80, 83, 84, 85, 86, 87, 88, 89, 90, 92, 94, 95, 96, 97, 98, 99]
12345678910111213141516171819202122232425262728WISER_RIB_GRAPH 0.5 NaN END
WISER_FIB_GRAPH 0.5 NaN END
ALLWISER_RIB_GRAPH 0.5 221942.56 END
ALLWISER_FIB_GRAPH 0.5 87345.78 END
BW_RIB_GRAPH 0.5 13487.74 END
BW_FIB_GRAPH 0.5 6081.48 END
ALLBW_RIB_GRAPH 0.5 14129.93 END
ALLBW_FIB_GRAPH 0.5 6439.78 END
REPLACEMENT_RIB_GRAPH 0.5 NaN END
REPLACEMENT_FIB_GRAPH 0.5 NaN END
REPLACEMENT_STUB_RIB_GRAPH 0.5 NaN END
REPLACEMENT_STUB_FIB_GRAPH 0.5 NaN END
[0, 1, 2, 66, 67, 71, 7, 74, 75, 76, 13, 77, 14, 15, 16, 82, 18, 21, 23, 27, 91, 92, 93, 31, 95, 96, 34, 36, 40, 42, 47, 49, 50, 51, 53, 54, 56, 63]
[0, 1, 2, 3, 4, 5, 6, 8, 10, 13, 14, 15, 16, 17, 19, 20, 21, 22, 24, 25, 26, 28, 29, 31, 32, 33, 34, 36, 37, 41, 43, 45, 47, 48, 50, 51, 52, 53, 54, 55, 56, 57, 58, 59, 60, 62, 63, 65, 66, 67, 69, 71, 73, 74, 75, 76, 77, 78, 79, 80, 83, 84, 85, 86, 87, 88, 89, 90, 92, 94, 95, 96, 97, 98, 99]
12345678910111213141516171819202122232425262728WISER_RIB_BGP_GRAPH 0.5 NaN END
WISER_FIB_BGP_GRAPH 0.5 NaN END
ALLWISER_RIB_BGP_GRAPH 0.5 181507.88 END
ALLWISER_FIB_BGP_GRAPH 0.5 66991.04 END
BW_RIB_BGP_GRAPH 0.5 NaN END
BW_FIB_BPG_GRAPH 0.5 NaN END
ALLBW_RIB_BPG_GRAPH 0.5 14747.38 END
ALLBW_FIB_BGP_GRAPH 0.5 6851.84 END

Testing on Transit seed 3
numpathcap: 10
percent passthrough ases:
0.75
[67, 3, 4, 6, 7, 8, 72, 73, 9, 10, 11, 77, 78, 79, 16, 82, 18, 84, 20, 87, 24, 27, 92, 95, 96, 97, 98, 34, 36, 39, 40, 45, 49, 51, 54, 56, 57, 59]
[0, 1, 2, 3, 4, 5, 6, 8, 10, 13, 14, 15, 16, 17, 19, 20, 21, 22, 24, 25, 26, 28, 29, 31, 32, 33, 34, 36, 37, 41, 43, 45, 47, 48, 50, 51, 52, 53, 54, 55, 56, 57, 58, 59, 60, 62, 63, 65, 66, 67, 69, 71, 73, 74, 75, 76, 77, 78, 79, 80, 83, 84, 85, 86, 87, 88, 89, 90, 92, 94, 95, 96, 97, 98, 99]
12345678910111213141516171819202122232425262728WISER_RIB_GRAPH 0.5 NaN END
WISER_FIB_GRAPH 0.5 NaN END
ALLWISER_RIB_GRAPH 0.5 210753.16 END
ALLWISER_FIB_GRAPH 0.5 82851.97 END
BW_RIB_GRAPH 0.5 14786.54 END
BW_FIB_GRAPH 0.5 6550.88 END
ALLBW_RIB_GRAPH 0.5 14337.52 END
ALLBW_FIB_GRAPH 0.5 6640.38 END
REPLACEMENT_RIB_GRAPH 0.5 NaN END
REPLACEMENT_FIB_GRAPH 0.5 NaN END
REPLACEMENT_STUB_RIB_GRAPH 0.5 NaN END
REPLACEMENT_STUB_FIB_GRAPH 0.5 NaN END
[67, 3, 4, 6, 7, 8, 72, 73, 9, 10, 11, 77, 78, 79, 16, 82, 18, 84, 20, 87, 24, 27, 92, 95, 96, 97, 98, 34, 36, 39, 40, 45, 49, 51, 54, 56, 57, 59]
[0, 1, 2, 3, 4, 5, 6, 8, 10, 13, 14, 15, 16, 17, 19, 20, 21, 22, 24, 25, 26, 28, 29, 31, 32, 33, 34, 36, 37, 41, 43, 45, 47, 48, 50, 51, 52, 53, 54, 55, 56, 57, 58, 59, 60, 62, 63, 65, 66, 67, 69, 71, 73, 74, 75, 76, 77, 78, 79, 80, 83, 84, 85, 86, 87, 88, 89, 90, 92, 94, 95, 96, 97, 98, 99]
12345678910111213141516171819202122232425262728WISER_RIB_BGP_GRAPH 0.5 NaN END
WISER_FIB_BGP_GRAPH 0.5 NaN END
ALLWISER_RIB_BGP_GRAPH 0.5 181507.88 END
ALLWISER_FIB_BGP_GRAPH 0.5 66991.04 END
BW_RIB_BGP_GRAPH 0.5 NaN END
BW_FIB_BPG_GRAPH 0.5 NaN END
ALLBW_RIB_BPG_GRAPH 0.5 14747.38 END
ALLBW_FIB_BGP_GRAPH 0.5 6851.84 END

Testing for stub/transit percentage: 0.060000

Testing on Transit seed 1
numpathcap: 10
percent passthrough ases:
0.75
[0, 65, 66, 67, 4, 5, 6, 71, 72, 8, 73, 12, 76, 78, 14, 15, 20, 84, 85, 23, 24, 25, 26, 90, 91, 92, 28, 30, 96, 33, 98, 34, 35, 37, 40, 43, 46, 47, 49, 50, 51, 54, 57, 59, 61]
[0, 1, 2, 3, 4, 5, 6, 8, 10, 13, 14, 15, 16, 17, 19, 20, 21, 22, 24, 25, 26, 28, 29, 31, 32, 33, 34, 36, 37, 41, 43, 45, 47, 48, 50, 51, 52, 53, 54, 55, 56, 57, 58, 59, 60, 62, 63, 65, 66, 67, 69, 71, 73, 74, 75, 76, 77, 78, 79, 80, 83, 84, 85, 86, 87, 88, 89, 90, 92, 94, 95, 96, 97, 98, 99]
12345678910111213141516171819202122232425262728WISER_RIB_GRAPH 0.6 NaN END
WISER_FIB_GRAPH 0.6 NaN END
ALLWISER_RIB_GRAPH 0.6 233578.5 END
ALLWISER_FIB_GRAPH 0.6 96264.53 END
BW_RIB_GRAPH 0.6 13668.866 END
BW_FIB_GRAPH 0.6 6004.7666 END
ALLBW_RIB_GRAPH 0.6 13740.99 END
ALLBW_FIB_GRAPH 0.6 6260.83 END
REPLACEMENT_RIB_GRAPH 0.6 NaN END
REPLACEMENT_FIB_GRAPH 0.6 NaN END
REPLACEMENT_STUB_RIB_GRAPH 0.6 NaN END
REPLACEMENT_STUB_FIB_GRAPH 0.6 NaN END
[0, 65, 66, 67, 4, 5, 6, 71, 72, 8, 73, 12, 76, 78, 14, 15, 20, 84, 85, 23, 24, 25, 26, 90, 91, 92, 28, 30, 96, 33, 98, 34, 35, 37, 40, 43, 46, 47, 49, 50, 51, 54, 57, 59, 61]
[0, 1, 2, 3, 4, 5, 6, 8, 10, 13, 14, 15, 16, 17, 19, 20, 21, 22, 24, 25, 26, 28, 29, 31, 32, 33, 34, 36, 37, 41, 43, 45, 47, 48, 50, 51, 52, 53, 54, 55, 56, 57, 58, 59, 60, 62, 63, 65, 66, 67, 69, 71, 73, 74, 75, 76, 77, 78, 79, 80, 83, 84, 85, 86, 87, 88, 89, 90, 92, 94, 95, 96, 97, 98, 99]
12345678910111213141516171819202122232425262728WISER_RIB_BGP_GRAPH 0.6 NaN END
WISER_FIB_BGP_GRAPH 0.6 NaN END
ALLWISER_RIB_BGP_GRAPH 0.6 181507.88 END
ALLWISER_FIB_BGP_GRAPH 0.6 66991.04 END
BW_RIB_BGP_GRAPH 0.6 NaN END
BW_FIB_BPG_GRAPH 0.6 NaN END
ALLBW_RIB_BPG_GRAPH 0.6 14747.38 END
ALLBW_FIB_BGP_GRAPH 0.6 6851.84 END

Testing on Transit seed 2
numpathcap: 10
percent passthrough ases:
0.75
[64, 0, 2, 66, 68, 7, 71, 8, 74, 76, 12, 77, 14, 78, 15, 16, 80, 82, 18, 23, 25, 89, 27, 91, 93, 95, 31, 96, 97, 33, 34, 99, 36, 37, 40, 42, 45, 47, 49, 50, 53, 54, 56, 58, 63]
[0, 1, 2, 3, 4, 5, 6, 8, 10, 13, 14, 15, 16, 17, 19, 20, 21, 22, 24, 25, 26, 28, 29, 31, 32, 33, 34, 36, 37, 41, 43, 45, 47, 48, 50, 51, 52, 53, 54, 55, 56, 57, 58, 59, 60, 62, 63, 65, 66, 67, 69, 71, 73, 74, 75, 76, 77, 78, 79, 80, 83, 84, 85, 86, 87, 88, 89, 90, 92, 94, 95, 96, 97, 98, 99]
12345678910111213141516171819202122232425262728WISER_RIB_GRAPH 0.6 NaN END
WISER_FIB_GRAPH 0.6 NaN END
ALLWISER_RIB_GRAPH 0.6 221830.34 END
ALLWISER_FIB_GRAPH 0.6 88697.78 END
BW_RIB_GRAPH 0.6 14066.6 END
BW_FIB_GRAPH 0.6 6500.3833 END
ALLBW_RIB_GRAPH 0.6 14681.91 END
ALLBW_FIB_GRAPH 0.6 6715.5 END
REPLACEMENT_RIB_GRAPH 0.6 NaN END
REPLACEMENT_FIB_GRAPH 0.6 NaN END
REPLACEMENT_STUB_RIB_GRAPH 0.6 NaN END
REPLACEMENT_STUB_FIB_GRAPH 0.6 NaN END
[64, 0, 2, 66, 68, 7, 71, 8, 74, 76, 12, 77, 14, 78, 15, 16, 80, 82, 18, 23, 25, 89, 27, 91, 93, 95, 31, 96, 97, 33, 34, 99, 36, 37, 40, 42, 45, 47, 49, 50, 53, 54, 56, 58, 63]
[0, 1, 2, 3, 4, 5, 6, 8, 10, 13, 14, 15, 16, 17, 19, 20, 21, 22, 24, 25, 26, 28, 29, 31, 32, 33, 34, 36, 37, 41, 43, 45, 47, 48, 50, 51, 52, 53, 54, 55, 56, 57, 58, 59, 60, 62, 63, 65, 66, 67, 69, 71, 73, 74, 75, 76, 77, 78, 79, 80, 83, 84, 85, 86, 87, 88, 89, 90, 92, 94, 95, 96, 97, 98, 99]
12345678910111213141516171819202122232425262728WISER_RIB_BGP_GRAPH 0.6 NaN END
WISER_FIB_BGP_GRAPH 0.6 NaN END
ALLWISER_RIB_BGP_GRAPH 0.6 181507.88 END
ALLWISER_FIB_BGP_GRAPH 0.6 66991.04 END
BW_RIB_BGP_GRAPH 0.6 NaN END
BW_FIB_BPG_GRAPH 0.6 NaN END
ALLBW_RIB_BPG_GRAPH 0.6 14747.38 END
ALLBW_FIB_BGP_GRAPH 0.6 6851.84 END

Testing on Transit seed 3
numpathcap: 10
percent passthrough ases:
0.75
[2, 4, 6, 7, 72, 8, 73, 10, 11, 12, 77, 15, 79, 82, 18, 83, 20, 21, 85, 86, 24, 90, 27, 92, 29, 94, 95, 96, 97, 33, 98, 34, 35, 37, 40, 43, 45, 48, 51, 54, 55, 56, 59, 62, 63]
[0, 1, 2, 3, 4, 5, 6, 8, 10, 13, 14, 15, 16, 17, 19, 20, 21, 22, 24, 25, 26, 28, 29, 31, 32, 33, 34, 36, 37, 41, 43, 45, 47, 48, 50, 51, 52, 53, 54, 55, 56, 57, 58, 59, 60, 62, 63, 65, 66, 67, 69, 71, 73, 74, 75, 76, 77, 78, 79, 80, 83, 84, 85, 86, 87, 88, 89, 90, 92, 94, 95, 96, 97, 98, 99]
12345678910111213141516171819202122232425262728WISER_RIB_GRAPH 0.6 NaN END
WISER_FIB_GRAPH 0.6 NaN END
ALLWISER_RIB_GRAPH 0.6 247462.23 END
ALLWISER_FIB_GRAPH 0.6 98054.1 END
BW_RIB_GRAPH 0.6 15078.884 END
BW_FIB_GRAPH 0.6 6750.5 END
ALLBW_RIB_GRAPH 0.6 14305.73 END
ALLBW_FIB_GRAPH 0.6 6764.2 END
REPLACEMENT_RIB_GRAPH 0.6 NaN END
REPLACEMENT_FIB_GRAPH 0.6 NaN END
REPLACEMENT_STUB_RIB_GRAPH 0.6 NaN END
REPLACEMENT_STUB_FIB_GRAPH 0.6 NaN END
[2, 4, 6, 7, 72, 8, 73, 10, 11, 12, 77, 15, 79, 82, 18, 83, 20, 21, 85, 86, 24, 90, 27, 92, 29, 94, 95, 96, 97, 33, 98, 34, 35, 37, 40, 43, 45, 48, 51, 54, 55, 56, 59, 62, 63]
[0, 1, 2, 3, 4, 5, 6, 8, 10, 13, 14, 15, 16, 17, 19, 20, 21, 22, 24, 25, 26, 28, 29, 31, 32, 33, 34, 36, 37, 41, 43, 45, 47, 48, 50, 51, 52, 53, 54, 55, 56, 57, 58, 59, 60, 62, 63, 65, 66, 67, 69, 71, 73, 74, 75, 76, 77, 78, 79, 80, 83, 84, 85, 86, 87, 88, 89, 90, 92, 94, 95, 96, 97, 98, 99]
12345678910111213141516171819202122232425262728WISER_RIB_BGP_GRAPH 0.6 NaN END
WISER_FIB_BGP_GRAPH 0.6 NaN END
ALLWISER_RIB_BGP_GRAPH 0.6 181507.88 END
ALLWISER_FIB_BGP_GRAPH 0.6 66991.04 END
BW_RIB_BGP_GRAPH 0.6 NaN END
BW_FIB_BPG_GRAPH 0.6 NaN END
ALLBW_RIB_BPG_GRAPH 0.6 14747.38 END
ALLBW_FIB_BGP_GRAPH 0.6 6851.84 END

Testing for stub/transit percentage: 0.070000

Testing on Transit seed 1
numpathcap: 10
percent passthrough ases:
0.75
[1, 4, 6, 8, 10, 11, 14, 15, 17, 23, 24, 25, 26, 28, 30, 31, 35, 37, 39, 40, 42, 43, 44, 47, 48, 49, 50, 54, 56, 59, 63, 65, 66, 67, 68, 69, 71, 73, 74, 78, 81, 82, 84, 85, 87, 89, 90, 91, 92, 93, 95, 96, 98]
[0, 1, 2, 3, 4, 5, 6, 8, 10, 13, 14, 15, 16, 17, 19, 20, 21, 22, 24, 25, 26, 28, 29, 31, 32, 33, 34, 36, 37, 41, 43, 45, 47, 48, 50, 51, 52, 53, 54, 55, 56, 57, 58, 59, 60, 62, 63, 65, 66, 67, 69, 71, 73, 74, 75, 76, 77, 78, 79, 80, 83, 84, 85, 86, 87, 88, 89, 90, 92, 94, 95, 96, 97, 98, 99]
12345678910111213141516171819202122232425262728WISER_RIB_GRAPH 0.7 NaN END
WISER_FIB_GRAPH 0.7 NaN END
ALLWISER_RIB_GRAPH 0.7 229282.34 END
ALLWISER_FIB_GRAPH 0.7 95030.27 END
BW_RIB_GRAPH 0.7 14289.371 END
BW_FIB_GRAPH 0.7 6600.0 END
ALLBW_RIB_GRAPH 0.7 14757.94 END
ALLBW_FIB_GRAPH 0.7 6759.37 END
REPLACEMENT_RIB_GRAPH 0.7 NaN END
REPLACEMENT_FIB_GRAPH 0.7 NaN END
REPLACEMENT_STUB_RIB_GRAPH 0.7 NaN END
REPLACEMENT_STUB_FIB_GRAPH 0.7 NaN END
[1, 4, 6, 8, 10, 11, 14, 15, 17, 23, 24, 25, 26, 28, 30, 31, 35, 37, 39, 40, 42, 43, 44, 47, 48, 49, 50, 54, 56, 59, 63, 65, 66, 67, 68, 69, 71, 73, 74, 78, 81, 82, 84, 85, 87, 89, 90, 91, 92, 93, 95, 96, 98]
[0, 1, 2, 3, 4, 5, 6, 8, 10, 13, 14, 15, 16, 17, 19, 20, 21, 22, 24, 25, 26, 28, 29, 31, 32, 33, 34, 36, 37, 41, 43, 45, 47, 48, 50, 51, 52, 53, 54, 55, 56, 57, 58, 59, 60, 62, 63, 65, 66, 67, 69, 71, 73, 74, 75, 76, 77, 78, 79, 80, 83, 84, 85, 86, 87, 88, 89, 90, 92, 94, 95, 96, 97, 98, 99]
12345678910111213141516171819202122232425262728WISER_RIB_BGP_GRAPH 0.7 NaN END
WISER_FIB_BGP_GRAPH 0.7 NaN END
ALLWISER_RIB_BGP_GRAPH 0.7 181507.88 END
ALLWISER_FIB_BGP_GRAPH 0.7 66991.04 END
BW_RIB_BGP_GRAPH 0.7 NaN END
BW_FIB_BPG_GRAPH 0.7 NaN END
ALLBW_RIB_BPG_GRAPH 0.7 14747.38 END
ALLBW_FIB_BGP_GRAPH 0.7 6851.84 END

Testing on Transit seed 2
numpathcap: 10
percent passthrough ases:
0.75
[1, 2, 7, 8, 12, 13, 15, 16, 18, 24, 25, 27, 31, 33, 34, 35, 38, 41, 44, 45, 46, 47, 48, 50, 51, 52, 53, 56, 58, 63, 65, 66, 67, 68, 71, 73, 74, 76, 77, 79, 80, 82, 85, 87, 88, 89, 91, 92, 93, 95, 96, 97, 99]
[0, 1, 2, 3, 4, 5, 6, 8, 10, 13, 14, 15, 16, 17, 19, 20, 21, 22, 24, 25, 26, 28, 29, 31, 32, 33, 34, 36, 37, 41, 43, 45, 47, 48, 50, 51, 52, 53, 54, 55, 56, 57, 58, 59, 60, 62, 63, 65, 66, 67, 69, 71, 73, 74, 75, 76, 77, 78, 79, 80, 83, 84, 85, 86, 87, 88, 89, 90, 92, 94, 95, 96, 97, 98, 99]
12345678910111213141516171819202122232425262728WISER_RIB_GRAPH 0.7 NaN END
WISER_FIB_GRAPH 0.7 NaN END
ALLWISER_RIB_GRAPH 0.7 229367.06 END
ALLWISER_FIB_GRAPH 0.7 92851.05 END
BW_RIB_GRAPH 0.7 14946.5 END
BW_FIB_GRAPH 0.7 6946.857 END
ALLBW_RIB_GRAPH 0.7 15032.71 END
ALLBW_FIB_GRAPH 0.7 6959.69 END
REPLACEMENT_RIB_GRAPH 0.7 NaN END
REPLACEMENT_FIB_GRAPH 0.7 NaN END
REPLACEMENT_STUB_RIB_GRAPH 0.7 NaN END
REPLACEMENT_STUB_FIB_GRAPH 0.7 NaN END
[1, 2, 7, 8, 12, 13, 15, 16, 18, 24, 25, 27, 31, 33, 34, 35, 38, 41, 44, 45, 46, 47, 48, 50, 51, 52, 53, 56, 58, 63, 65, 66, 67, 68, 71, 73, 74, 76, 77, 79, 80, 82, 85, 87, 88, 89, 91, 92, 93, 95, 96, 97, 99]
[0, 1, 2, 3, 4, 5, 6, 8, 10, 13, 14, 15, 16, 17, 19, 20, 21, 22, 24, 25, 26, 28, 29, 31, 32, 33, 34, 36, 37, 41, 43, 45, 47, 48, 50, 51, 52, 53, 54, 55, 56, 57, 58, 59, 60, 62, 63, 65, 66, 67, 69, 71, 73, 74, 75, 76, 77, 78, 79, 80, 83, 84, 85, 86, 87, 88, 89, 90, 92, 94, 95, 96, 97, 98, 99]
12345678910111213141516171819202122232425262728WISER_RIB_BGP_GRAPH 0.7 NaN END
WISER_FIB_BGP_GRAPH 0.7 NaN END
ALLWISER_RIB_BGP_GRAPH 0.7 181507.88 END
ALLWISER_FIB_BGP_GRAPH 0.7 66991.04 END
BW_RIB_BGP_GRAPH 0.7 NaN END
BW_FIB_BPG_GRAPH 0.7 NaN END
ALLBW_RIB_BPG_GRAPH 0.7 14747.38 END
ALLBW_FIB_BGP_GRAPH 0.7 6851.84 END

Testing on Transit seed 3
numpathcap: 10
percent passthrough ases:
0.75
[3, 4, 6, 7, 8, 9, 11, 12, 15, 19, 20, 21, 24, 26, 27, 29, 34, 36, 39, 40, 41, 43, 45, 49, 51, 54, 55, 57, 60, 63, 65, 67, 72, 73, 74, 76, 77, 79, 80, 83, 84, 85, 87, 89, 90, 92, 93, 94, 95, 96, 97, 98, 99]
[0, 1, 2, 3, 4, 5, 6, 8, 10, 13, 14, 15, 16, 17, 19, 20, 21, 22, 24, 25, 26, 28, 29, 31, 32, 33, 34, 36, 37, 41, 43, 45, 47, 48, 50, 51, 52, 53, 54, 55, 56, 57, 58, 59, 60, 62, 63, 65, 66, 67, 69, 71, 73, 74, 75, 76, 77, 78, 79, 80, 83, 84, 85, 86, 87, 88, 89, 90, 92, 94, 95, 96, 97, 98, 99]
12345678910111213141516171819202122232425262728WISER_RIB_GRAPH 0.7 NaN END
WISER_FIB_GRAPH 0.7 NaN END
ALLWISER_RIB_GRAPH 0.7 253895.38 END
ALLWISER_FIB_GRAPH 0.7 102413.15 END
BW_RIB_GRAPH 0.7 15490.686 END
BW_FIB_GRAPH 0.7 7178.7 END
ALLBW_RIB_GRAPH 0.7 14793.02 END
ALLBW_FIB_GRAPH 0.7 7084.18 END
REPLACEMENT_RIB_GRAPH 0.7 NaN END
REPLACEMENT_FIB_GRAPH 0.7 NaN END
REPLACEMENT_STUB_RIB_GRAPH 0.7 NaN END
REPLACEMENT_STUB_FIB_GRAPH 0.7 NaN END
[3, 4, 6, 7, 8, 9, 11, 12, 15, 19, 20, 21, 24, 26, 27, 29, 34, 36, 39, 40, 41, 43, 45, 49, 51, 54, 55, 57, 60, 63, 65, 67, 72, 73, 74, 76, 77, 79, 80, 83, 84, 85, 87, 89, 90, 92, 93, 94, 95, 96, 97, 98, 99]
[0, 1, 2, 3, 4, 5, 6, 8, 10, 13, 14, 15, 16, 17, 19, 20, 21, 22, 24, 25, 26, 28, 29, 31, 32, 33, 34, 36, 37, 41, 43, 45, 47, 48, 50, 51, 52, 53, 54, 55, 56, 57, 58, 59, 60, 62, 63, 65, 66, 67, 69, 71, 73, 74, 75, 76, 77, 78, 79, 80, 83, 84, 85, 86, 87, 88, 89, 90, 92, 94, 95, 96, 97, 98, 99]
12345678910111213141516171819202122232425262728WISER_RIB_BGP_GRAPH 0.7 NaN END
WISER_FIB_BGP_GRAPH 0.7 NaN END
ALLWISER_RIB_BGP_GRAPH 0.7 181507.88 END
ALLWISER_FIB_BGP_GRAPH 0.7 66991.04 END
BW_RIB_BGP_GRAPH 0.7 NaN END
BW_FIB_BPG_GRAPH 0.7 NaN END
ALLBW_RIB_BPG_GRAPH 0.7 14747.38 END
ALLBW_FIB_BGP_GRAPH 0.7 6851.84 END

Testing for stub/transit percentage: 0.080000

Testing on Transit seed 1
numpathcap: 10
percent passthrough ases:
0.75
[0, 1, 2, 4, 5, 6, 8, 10, 11, 12, 15, 16, 17, 19, 20, 21, 23, 24, 26, 30, 31, 35, 36, 37, 39, 42, 43, 44, 46, 47, 48, 50, 51, 52, 56, 59, 61, 64, 67, 68, 69, 71, 72, 73, 74, 76, 78, 81, 83, 87, 88, 90, 91, 92, 93, 94, 95, 96, 97, 98]
[0, 1, 2, 3, 4, 5, 6, 8, 10, 13, 14, 15, 16, 17, 19, 20, 21, 22, 24, 25, 26, 28, 29, 31, 32, 33, 34, 36, 37, 41, 43, 45, 47, 48, 50, 51, 52, 53, 54, 55, 56, 57, 58, 59, 60, 62, 63, 65, 66, 67, 69, 71, 73, 74, 75, 76, 77, 78, 79, 80, 83, 84, 85, 86, 87, 88, 89, 90, 92, 94, 95, 96, 97, 98, 99]
12345678910111213141516171819202122232425262728WISER_RIB_GRAPH 0.8 NaN END
WISER_FIB_GRAPH 0.8 NaN END
ALLWISER_RIB_GRAPH 0.8 253249.95 END
ALLWISER_FIB_GRAPH 0.8 105159.2 END
BW_RIB_GRAPH 0.8 15979.2 END
BW_FIB_GRAPH 0.8 7693.575 END
ALLBW_RIB_GRAPH 0.8 16205.55 END
ALLBW_FIB_GRAPH 0.8 7754.13 END
REPLACEMENT_RIB_GRAPH 0.8 NaN END
REPLACEMENT_FIB_GRAPH 0.8 NaN END
REPLACEMENT_STUB_RIB_GRAPH 0.8 NaN END
REPLACEMENT_STUB_FIB_GRAPH 0.8 NaN END
[0, 1, 2, 4, 5, 6, 8, 10, 11, 12, 15, 16, 17, 19, 20, 21, 23, 24, 26, 30, 31, 35, 36, 37, 39, 42, 43, 44, 46, 47, 48, 50, 51, 52, 56, 59, 61, 64, 67, 68, 69, 71, 72, 73, 74, 76, 78, 81, 83, 87, 88, 90, 91, 92, 93, 94, 95, 96, 97, 98]
[0, 1, 2, 3, 4, 5, 6, 8, 10, 13, 14, 15, 16, 17, 19, 20, 21, 22, 24, 25, 26, 28, 29, 31, 32, 33, 34, 36, 37, 41, 43, 45, 47, 48, 50, 51, 52, 53, 54, 55, 56, 57, 58, 59, 60, 62, 63, 65, 66, 67, 69, 71, 73, 74, 75, 76, 77, 78, 79, 80, 83, 84, 85, 86, 87, 88, 89, 90, 92, 94, 95, 96, 97, 98, 99]
12345678910111213141516171819202122232425262728WISER_RIB_BGP_GRAPH 0.8 NaN END
WISER_FIB_BGP_GRAPH 0.8 NaN END
ALLWISER_RIB_BGP_GRAPH 0.8 181507.88 END
ALLWISER_FIB_BGP_GRAPH 0.8 66991.04 END
BW_RIB_BGP_GRAPH 0.8 NaN END
BW_FIB_BPG_GRAPH 0.8 NaN END
ALLBW_RIB_BPG_GRAPH 0.8 14747.38 END
ALLBW_FIB_BGP_GRAPH 0.8 6851.84 END

Testing on Transit seed 2
numpathcap: 10
percent passthrough ases:
0.75
[0, 1, 2, 4, 7, 8, 12, 13, 14, 15, 18, 19, 20, 23, 24, 25, 26, 27, 33, 35, 36, 40, 41, 42, 45, 47, 48, 49, 50, 51, 52, 54, 56, 57, 60, 63, 64, 66, 70, 71, 72, 73, 74, 75, 76, 77, 78, 79, 82, 86, 87, 89, 91, 92, 93, 94, 95, 96, 97, 99]
[0, 1, 2, 3, 4, 5, 6, 8, 10, 13, 14, 15, 16, 17, 19, 20, 21, 22, 24, 25, 26, 28, 29, 31, 32, 33, 34, 36, 37, 41, 43, 45, 47, 48, 50, 51, 52, 53, 54, 55, 56, 57, 58, 59, 60, 62, 63, 65, 66, 67, 69, 71, 73, 74, 75, 76, 77, 78, 79, 80, 83, 84, 85, 86, 87, 88, 89, 90, 92, 94, 95, 96, 97, 98, 99]
12345678910111213141516171819202122232425262728WISER_RIB_GRAPH 0.8 NaN END
WISER_FIB_GRAPH 0.8 NaN END
ALLWISER_RIB_GRAPH 0.8 246555.88 END
ALLWISER_FIB_GRAPH 0.8 103199.37 END
BW_RIB_GRAPH 0.8 16296.513 END
BW_FIB_GRAPH 0.8 7904.15 END
ALLBW_RIB_GRAPH 0.8 16441.19 END
ALLBW_FIB_GRAPH 0.8 7849.37 END
REPLACEMENT_RIB_GRAPH 0.8 NaN END
REPLACEMENT_FIB_GRAPH 0.8 NaN END
REPLACEMENT_STUB_RIB_GRAPH 0.8 NaN END
REPLACEMENT_STUB_FIB_GRAPH 0.8 NaN END
[0, 1, 2, 4, 7, 8, 12, 13, 14, 15, 18, 19, 20, 23, 24, 25, 26, 27, 33, 35, 36, 40, 41, 42, 45, 47, 48, 49, 50, 51, 52, 54, 56, 57, 60, 63, 64, 66, 70, 71, 72, 73, 74, 75, 76, 77, 78, 79, 82, 86, 87, 89, 91, 92, 93, 94, 95, 96, 97, 99]
[0, 1, 2, 3, 4, 5, 6, 8, 10, 13, 14, 15, 16, 17, 19, 20, 21, 22, 24, 25, 26, 28, 29, 31, 32, 33, 34, 36, 37, 41, 43, 45, 47, 48, 50, 51, 52, 53, 54, 55, 56, 57, 58, 59, 60, 62, 63, 65, 66, 67, 69, 71, 73, 74, 75, 76, 77, 78, 79, 80, 83, 84, 85, 86, 87, 88, 89, 90, 92, 94, 95, 96, 97, 98, 99]
12345678910111213141516171819202122232425262728WISER_RIB_BGP_GRAPH 0.8 NaN END
WISER_FIB_BGP_GRAPH 0.8 NaN END
ALLWISER_RIB_BGP_GRAPH 0.8 181507.88 END
ALLWISER_FIB_BGP_GRAPH 0.8 66991.04 END
BW_RIB_BGP_GRAPH 0.8 NaN END
BW_FIB_BPG_GRAPH 0.8 NaN END
ALLBW_RIB_BPG_GRAPH 0.8 14747.38 END
ALLBW_FIB_BGP_GRAPH 0.8 6851.84 END

Testing on Transit seed 3
numpathcap: 10
percent passthrough ases:
0.75
[2, 3, 4, 5, 6, 7, 9, 10, 11, 12, 15, 16, 18, 20, 21, 22, 24, 26, 29, 33, 34, 37, 39, 40, 42, 44, 45, 46, 48, 49, 50, 54, 55, 56, 60, 63, 64, 66, 72, 73, 74, 75, 76, 77, 78, 79, 80, 82, 84, 87, 89, 91, 92, 93, 94, 95, 96, 97, 98, 99]
[0, 1, 2, 3, 4, 5, 6, 8, 10, 13, 14, 15, 16, 17, 19, 20, 21, 22, 24, 25, 26, 28, 29, 31, 32, 33, 34, 36, 37, 41, 43, 45, 47, 48, 50, 51, 52, 53, 54, 55, 56, 57, 58, 59, 60, 62, 63, 65, 66, 67, 69, 71, 73, 74, 75, 76, 77, 78, 79, 80, 83, 84, 85, 86, 87, 88, 89, 90, 92, 94, 95, 96, 97, 98, 99]
12345678910111213141516171819202122232425262728WISER_RIB_GRAPH 0.8 NaN END
WISER_FIB_GRAPH 0.8 NaN END
ALLWISER_RIB_GRAPH 0.8 238719.31 END
ALLWISER_FIB_GRAPH 0.8 95159.75 END
BW_RIB_GRAPH 0.8 16644.75 END
BW_FIB_GRAPH 0.8 8263.15 END
ALLBW_RIB_GRAPH 0.8 16593.65 END
ALLBW_FIB_GRAPH 0.8 8107.81 END
REPLACEMENT_RIB_GRAPH 0.8 NaN END
REPLACEMENT_FIB_GRAPH 0.8 NaN END
REPLACEMENT_STUB_RIB_GRAPH 0.8 NaN END
REPLACEMENT_STUB_FIB_GRAPH 0.8 NaN END
[2, 3, 4, 5, 6, 7, 9, 10, 11, 12, 15, 16, 18, 20, 21, 22, 24, 26, 29, 33, 34, 37, 39, 40, 42, 44, 45, 46, 48, 49, 50, 54, 55, 56, 60, 63, 64, 66, 72, 73, 74, 75, 76, 77, 78, 79, 80, 82, 84, 87, 89, 91, 92, 93, 94, 95, 96, 97, 98, 99]
[0, 1, 2, 3, 4, 5, 6, 8, 10, 13, 14, 15, 16, 17, 19, 20, 21, 22, 24, 25, 26, 28, 29, 31, 32, 33, 34, 36, 37, 41, 43, 45, 47, 48, 50, 51, 52, 53, 54, 55, 56, 57, 58, 59, 60, 62, 63, 65, 66, 67, 69, 71, 73, 74, 75, 76, 77, 78, 79, 80, 83, 84, 85, 86, 87, 88, 89, 90, 92, 94, 95, 96, 97, 98, 99]
12345678910111213141516171819202122232425262728WISER_RIB_BGP_GRAPH 0.8 NaN END
WISER_FIB_BGP_GRAPH 0.8 NaN END
ALLWISER_RIB_BGP_GRAPH 0.8 181507.88 END
ALLWISER_FIB_BGP_GRAPH 0.8 66991.04 END
BW_RIB_BGP_GRAPH 0.8 NaN END
BW_FIB_BPG_GRAPH 0.8 NaN END
ALLBW_RIB_BPG_GRAPH 0.8 14747.38 END
ALLBW_FIB_BGP_GRAPH 0.8 6851.84 END

Testing for stub/transit percentage: 0.090000

Testing on Transit seed 1
numpathcap: 10
percent passthrough ases:
0.75
[0, 1, 2, 4, 5, 6, 7, 8, 10, 11, 14, 16, 17, 18, 19, 20, 21, 25, 26, 27, 28, 30, 31, 33, 34, 35, 37, 38, 39, 42, 43, 46, 48, 49, 50, 51, 52, 54, 55, 56, 60, 61, 63, 64, 65, 66, 67, 68, 69, 70, 71, 72, 73, 74, 75, 80, 81, 83, 84, 85, 86, 88, 90, 91, 93, 96, 97, 98]
[0, 1, 2, 3, 4, 5, 6, 8, 10, 13, 14, 15, 16, 17, 19, 20, 21, 22, 24, 25, 26, 28, 29, 31, 32, 33, 34, 36, 37, 41, 43, 45, 47, 48, 50, 51, 52, 53, 54, 55, 56, 57, 58, 59, 60, 62, 63, 65, 66, 67, 69, 71, 73, 74, 75, 76, 77, 78, 79, 80, 83, 84, 85, 86, 87, 88, 89, 90, 92, 94, 95, 96, 97, 98, 99]
12345678910111213141516171819202122232425262728WISER_RIB_GRAPH 0.9 NaN END
WISER_FIB_GRAPH 0.9 NaN END
ALLWISER_RIB_GRAPH 0.9 240930.4 END
ALLWISER_FIB_GRAPH 0.9 99309.21 END
BW_RIB_GRAPH 0.9 18061.344 END
BW_FIB_GRAPH 0.9 9171.211 END
ALLBW_RIB_GRAPH 0.9 18034.0 END
ALLBW_FIB_GRAPH 0.9 9088.64 END
REPLACEMENT_RIB_GRAPH 0.9 NaN END
REPLACEMENT_FIB_GRAPH 0.9 NaN END
REPLACEMENT_STUB_RIB_GRAPH 0.9 NaN END
REPLACEMENT_STUB_FIB_GRAPH 0.9 NaN END
[0, 1, 2, 4, 5, 6, 7, 8, 10, 11, 14, 16, 17, 18, 19, 20, 21, 25, 26, 27, 28, 30, 31, 33, 34, 35, 37, 38, 39, 42, 43, 46, 48, 49, 50, 51, 52, 54, 55, 56, 60, 61, 63, 64, 65, 66, 67, 68, 69, 70, 71, 72, 73, 74, 75, 80, 81, 83, 84, 85, 86, 88, 90, 91, 93, 96, 97, 98]
[0, 1, 2, 3, 4, 5, 6, 8, 10, 13, 14, 15, 16, 17, 19, 20, 21, 22, 24, 25, 26, 28, 29, 31, 32, 33, 34, 36, 37, 41, 43, 45, 47, 48, 50, 51, 52, 53, 54, 55, 56, 57, 58, 59, 60, 62, 63, 65, 66, 67, 69, 71, 73, 74, 75, 76, 77, 78, 79, 80, 83, 84, 85, 86, 87, 88, 89, 90, 92, 94, 95, 96, 97, 98, 99]
12345678910111213141516171819202122232425262728WISER_RIB_BGP_GRAPH 0.9 NaN END
WISER_FIB_BGP_GRAPH 0.9 NaN END
ALLWISER_RIB_BGP_GRAPH 0.9 181507.88 END
ALLWISER_FIB_BGP_GRAPH 0.9 66991.04 END
BW_RIB_BGP_GRAPH 0.9 NaN END
BW_FIB_BPG_GRAPH 0.9 NaN END
ALLBW_RIB_BPG_GRAPH 0.9 14747.38 END
ALLBW_FIB_BGP_GRAPH 0.9 6851.84 END

Testing on Transit seed 2
numpathcap: 10
percent passthrough ases:
0.75
[0, 1, 2, 3, 4, 5, 7, 8, 12, 13, 15, 17, 18, 19, 20, 21, 23, 27, 28, 29, 31, 32, 33, 34, 35, 36, 38, 39, 40, 42, 44, 46, 48, 49, 50, 51, 52, 54, 56, 57, 60, 61, 62, 63, 64, 65, 66, 67, 68, 69, 70, 71, 72, 73, 74, 78, 79, 81, 82, 84, 85, 87, 89, 91, 93, 96, 97, 99]
[0, 1, 2, 3, 4, 5, 6, 8, 10, 13, 14, 15, 16, 17, 19, 20, 21, 22, 24, 25, 26, 28, 29, 31, 32, 33, 34, 36, 37, 41, 43, 45, 47, 48, 50, 51, 52, 53, 54, 55, 56, 57, 58, 59, 60, 62, 63, 65, 66, 67, 69, 71, 73, 74, 75, 76, 77, 78, 79, 80, 83, 84, 85, 86, 87, 88, 89, 90, 92, 94, 95, 96, 97, 98, 99]
12345678910111213141516171819202122232425262728WISER_RIB_GRAPH 0.9 NaN END
WISER_FIB_GRAPH 0.9 NaN END
ALLWISER_RIB_GRAPH 0.9 262525.53 END
ALLWISER_FIB_GRAPH 0.9 112467.26 END
BW_RIB_GRAPH 0.9 17189.055 END
BW_FIB_GRAPH 0.9 8362.045 END
ALLBW_RIB_GRAPH 0.9 17374.33 END
ALLBW_FIB_GRAPH 0.9 8406.3 END
REPLACEMENT_RIB_GRAPH 0.9 NaN END
REPLACEMENT_FIB_GRAPH 0.9 NaN END
REPLACEMENT_STUB_RIB_GRAPH 0.9 NaN END
REPLACEMENT_STUB_FIB_GRAPH 0.9 NaN END
[0, 1, 2, 3, 4, 5, 7, 8, 12, 13, 15, 17, 18, 19, 20, 21, 23, 27, 28, 29, 31, 32, 33, 34, 35, 36, 38, 39, 40, 42, 44, 46, 48, 49, 50, 51, 52, 54, 56, 57, 60, 61, 62, 63, 64, 65, 66, 67, 68, 69, 70, 71, 72, 73, 74, 78, 79, 81, 82, 84, 85, 87, 89, 91, 93, 96, 97, 99]
[0, 1, 2, 3, 4, 5, 6, 8, 10, 13, 14, 15, 16, 17, 19, 20, 21, 22, 24, 25, 26, 28, 29, 31, 32, 33, 34, 36, 37, 41, 43, 45, 47, 48, 50, 51, 52, 53, 54, 55, 56, 57, 58, 59, 60, 62, 63, 65, 66, 67, 69, 71, 73, 74, 75, 76, 77, 78, 79, 80, 83, 84, 85, 86, 87, 88, 89, 90, 92, 94, 95, 96, 97, 98, 99]
12345678910111213141516171819202122232425262728WISER_RIB_BGP_GRAPH 0.9 NaN END
WISER_FIB_BGP_GRAPH 0.9 NaN END
ALLWISER_RIB_BGP_GRAPH 0.9 181507.88 END
ALLWISER_FIB_BGP_GRAPH 0.9 66991.04 END
BW_RIB_BGP_GRAPH 0.9 NaN END
BW_FIB_BPG_GRAPH 0.9 NaN END
ALLBW_RIB_BPG_GRAPH 0.9 14747.38 END
ALLBW_FIB_BGP_GRAPH 0.9 6851.84 END

Testing on Transit seed 3
numpathcap: 10
percent passthrough ases:
0.75
[1, 2, 3, 4, 5, 6, 7, 8, 10, 11, 13, 15, 16, 17, 18, 19, 20, 26, 27, 29, 30, 31, 33, 34, 35, 36, 39, 40, 41, 43, 44, 46, 49, 50, 51, 52, 54, 56, 57, 58, 61, 62, 63, 64, 65, 66, 67, 68, 69, 71, 72, 73, 74, 75, 76, 80, 82, 84, 85, 86, 87, 89, 91, 92, 94, 97, 98, 99]
[0, 1, 2, 3, 4, 5, 6, 8, 10, 13, 14, 15, 16, 17, 19, 20, 21, 22, 24, 25, 26, 28, 29, 31, 32, 33, 34, 36, 37, 41, 43, 45, 47, 48, 50, 51, 52, 53, 54, 55, 56, 57, 58, 59, 60, 62, 63, 65, 66, 67, 69, 71, 73, 74, 75, 76, 77, 78, 79, 80, 83, 84, 85, 86, 87, 88, 89, 90, 92, 94, 95, 96, 97, 98, 99]
12345678910111213141516171819202122232425262728WISER_RIB_GRAPH 0.9 NaN END
WISER_FIB_GRAPH 0.9 NaN END
ALLWISER_RIB_GRAPH 0.9 254673.98 END
ALLWISER_FIB_GRAPH 0.9 104438.79 END
BW_RIB_GRAPH 0.9 17349.19 END
BW_FIB_GRAPH 0.9 8674.455 END
ALLBW_RIB_GRAPH 0.9 17511.63 END
ALLBW_FIB_GRAPH 0.9 8723.46 END
REPLACEMENT_RIB_GRAPH 0.9 NaN END
REPLACEMENT_FIB_GRAPH 0.9 NaN END
REPLACEMENT_STUB_RIB_GRAPH 0.9 NaN END
REPLACEMENT_STUB_FIB_GRAPH 0.9 NaN END
[1, 2, 3, 4, 5, 6, 7, 8, 10, 11, 13, 15, 16, 17, 18, 19, 20, 26, 27, 29, 30, 31, 33, 34, 35, 36, 39, 40, 41, 43, 44, 46, 49, 50, 51, 52, 54, 56, 57, 58, 61, 62, 63, 64, 65, 66, 67, 68, 69, 71, 72, 73, 74, 75, 76, 80, 82, 84, 85, 86, 87, 89, 91, 92, 94, 97, 98, 99]
[0, 1, 2, 3, 4, 5, 6, 8, 10, 13, 14, 15, 16, 17, 19, 20, 21, 22, 24, 25, 26, 28, 29, 31, 32, 33, 34, 36, 37, 41, 43, 45, 47, 48, 50, 51, 52, 53, 54, 55, 56, 57, 58, 59, 60, 62, 63, 65, 66, 67, 69, 71, 73, 74, 75, 76, 77, 78, 79, 80, 83, 84, 85, 86, 87, 88, 89, 90, 92, 94, 95, 96, 97, 98, 99]
12345678910111213141516171819202122232425262728WISER_RIB_BGP_GRAPH 0.9 NaN END
WISER_FIB_BGP_GRAPH 0.9 NaN END
ALLWISER_RIB_BGP_GRAPH 0.9 181507.88 END
ALLWISER_FIB_BGP_GRAPH 0.9 66991.04 END
BW_RIB_BGP_GRAPH 0.9 NaN END
BW_FIB_BPG_GRAPH 0.9 NaN END
ALLBW_RIB_BPG_GRAPH 0.9 14747.38 END
ALLBW_FIB_BGP_GRAPH 0.9 6851.84 END
numpathcap: 10
percent passthrough ases:
0.75
[0, 1, 2, 3, 4, 5, 6, 8, 10, 13, 14, 15, 16, 17, 19, 20, 21, 22, 24, 25, 26, 28, 29, 31, 32, 33, 34, 36, 37, 41, 43, 45, 47, 48, 50, 51, 52, 53, 54, 55, 56, 57, 58, 59, 60, 62, 63, 65, 66, 67, 69, 71, 73, 74, 75, 76, 77, 78, 79, 80, 83, 84, 85, 86, 87, 88, 89, 90, 92, 94, 95, 96, 97, 98, 99]
[0, 1, 2, 3, 4, 5, 6, 8, 10, 13, 14, 15, 16, 17, 19, 20, 21, 22, 24, 25, 26, 28, 29, 31, 32, 33, 34, 36, 37, 41, 43, 45, 47, 48, 50, 51, 52, 53, 54, 55, 56, 57, 58, 59, 60, 62, 63, 65, 66, 67, 69, 71, 73, 74, 75, 76, 77, 78, 79, 80, 83, 84, 85, 86, 87, 88, 89, 90, 92, 94, 95, 96, 97, 98, 99]
12345678910111213141516171819202122232425262728WISER_RIB_GRAPH 1.0 NaN END
WISER_FIB_GRAPH 1.0 NaN END
ALLWISER_RIB_GRAPH 1.0 251084.98 END
ALLWISER_FIB_GRAPH 1.0 104928.19 END
BW_RIB_GRAPH 1.0 19022.17 END
BW_FIB_GRAPH 1.0 9718.88 END
ALLBW_RIB_GRAPH 1.0 19022.17 END
ALLBW_FIB_GRAPH 1.0 9718.88 END
REPLACEMENT_RIB_GRAPH 1.0 NaN END
REPLACEMENT_FIB_GRAPH 1.0 NaN END
REPLACEMENT_STUB_RIB_GRAPH 1.0 NaN END
REPLACEMENT_STUB_FIB_GRAPH 1.0 NaN END
[0, 1, 2, 3, 4, 5, 6, 8, 10, 13, 14, 15, 16, 17, 19, 20, 21, 22, 24, 25, 26, 28, 29, 31, 32, 33, 34, 36, 37, 41, 43, 45, 47, 48, 50, 51, 52, 53, 54, 55, 56, 57, 58, 59, 60, 62, 63, 65, 66, 67, 69, 71, 73, 74, 75, 76, 77, 78, 79, 80, 83, 84, 85, 86, 87, 88, 89, 90, 92, 94, 95, 96, 97, 98, 99]
[0, 1, 2, 3, 4, 5, 6, 8, 10, 13, 14, 15, 16, 17, 19, 20, 21, 22, 24, 25, 26, 28, 29, 31, 32, 33, 34, 36, 37, 41, 43, 45, 47, 48, 50, 51, 52, 53, 54, 55, 56, 57, 58, 59, 60, 62, 63, 65, 66, 67, 69, 71, 73, 74, 75, 76, 77, 78, 79, 80, 83, 84, 85, 86, 87, 88, 89, 90, 92, 94, 95, 96, 97, 98, 99]
12345678910111213141516171819202122232425262728WISER_RIB_BGP_GRAPH 1.0 NaN END
WISER_FIB_BGP_GRAPH 1.0 NaN END
ALLWISER_RIB_BGP_GRAPH 1.0 181507.88 END
ALLWISER_FIB_BGP_GRAPH 1.0 66991.04 END
BW_RIB_BGP_GRAPH 1.0 NaN END
BW_FIB_BPG_GRAPH 1.0 NaN END
ALLBW_RIB_BPG_GRAPH 1.0 14747.38 END
ALLBW_FIB_BGP_GRAPH 1.0 6851.84 END
