arg1 is fraction to main protocol
arg2 is the max paths for replacement protocol
arg3 what protocol to make up main fraction i.e. arg1, 501 wiser 505 bw 507 replacmeent
.45 10 505astypes.txt
LEGEND  ENDLEGEND\n

Testing for stub/transit percentage: 0.040000

Testing on Transit seed 1
numpathcap: 10
123456789101112131415161718192021222324252627282930313233343536373839404142434445464748495051525354taking longer than: 30stopping this run
removing rib and fib entries for : 393
555657585960616263646566676869707172737475767778798081828384858687888990919293taking longer than: 30stopping this run
removing rib and fib entries for : 444
949596979899100101102103104105106107108109110111112113114115116117118119120121122123124125126127128129130131132133134135136137138139140141142143144145146147148149150151152153154155156157158159160161162163164taking longer than: 30stopping this run
removing rib and fib entries for : 246
165HERE
WISER RIB GRAPH 0.45 718761.6 ENDGRAPH ENDRIB ENDWISER
WISER FIB GRAPH 0.45 330506.8 ENDGRAPH ENDFIB ENDWISER
BW RIB GRAPH 0.45 69145.14 ENDGRAPH ENDRIB ENDBW
BW FIB GRAPH 0.45 39079.465 ENDGRAPH ENDFIB ENDBW
REPLACEMENT RIB GRAPH 0.45 325.36264 ENDGRAPH ENDRIB ENDREPLACEMENT
REPLACEMENT FIB GRAPH 0.45 161.67033 ENDGRAPH ENDFIB ENDREPLACEMENT
totalRIbsize: 166787
totla bestpath nodes: 587400
totla bestpath tcost: 30406627

Testing on Transit seed 2
numpathcap: 10
12345678910111213141516171819202122232425262728taking longer than: 30stopping this run
removing rib and fib entries for : 342
2930313233343536373839404142434445464748495051525354555657585960616263646566676869707172737475767778798081828384858687888990919293949596979899100101102103104105106107108109110111112113114115116117118119120121122123124125126127128129130131132133134135136137138139140141taking longer than: 30stopping this run
removing rib and fib entries for : 484
142143144145146147148149150151152153154155156157158159160161162163164165HERE
WISER RIB GRAPH 0.45 884047.4 ENDGRAPH ENDRIB ENDWISER
WISER FIB GRAPH 0.45 405188.4 ENDGRAPH ENDFIB ENDWISER
BW RIB GRAPH 0.45 61548.773 ENDGRAPH ENDRIB ENDBW
BW FIB GRAPH 0.45 34971.336 ENDGRAPH ENDFIB ENDBW
REPLACEMENT RIB GRAPH 0.45 336.12088 ENDGRAPH ENDRIB ENDREPLACEMENT
REPLACEMENT FIB GRAPH 0.45 162.68132 ENDGRAPH ENDFIB ENDREPLACEMENT
totalRIbsize: 168490
totla bestpath nodes: 551683
totla bestpath tcost: 37277332

Testing on Transit seed 3
numpathcap: 10
123456789101112131415161718192021222324252627282930313233343536373839404142434445464748495051525354555657585960616263646566676869707172737475767778798081828384858687888990919293949596979899100101102103104105106107108109110111112113114115116117118119120121122123124125126taking longer than: 30stopping this run
removing rib and fib entries for : 473
127128129130131132133134135136137138139140141142143144145146147148149150151152153154155156157158159160161162163164165HERE
WISER RIB GRAPH 0.45 905494.94 ENDGRAPH ENDRIB ENDWISER
WISER FIB GRAPH 0.45 406687.47 ENDGRAPH ENDFIB ENDWISER
BW RIB GRAPH 0.45 60350.656 ENDGRAPH ENDRIB ENDBW
BW FIB GRAPH 0.45 34483.754 ENDGRAPH ENDFIB ENDBW
REPLACEMENT RIB GRAPH 0.45 341.73627 ENDGRAPH ENDRIB ENDREPLACEMENT
REPLACEMENT FIB GRAPH 0.45 163.67033 ENDGRAPH ENDFIB ENDREPLACEMENT
totalRIbsize: 169034
totla bestpath nodes: 544936
totla bestpath tcost: 37415246

Testing on Transit seed 4
numpathcap: 10
123456789101112131415161718192021222324252627282930313233343536373839404142434445464748495051525354555657585960616263646566676869707172737475767778798081828384858687888990919293949596979899100101102103104105106107108109110111112113114115116117118119120121122123124125126taking longer than: 30stopping this run
removing rib and fib entries for : 473
127128129130131taking longer than: 30stopping this run
removing rib and fib entries for : 477
132133134135136137138139140141142143144145146147148149150151152153154155156157158159160161162163164165HERE
WISER RIB GRAPH 0.45 804252.4 ENDGRAPH ENDRIB ENDWISER
WISER FIB GRAPH 0.45 364359.75 ENDGRAPH ENDFIB ENDWISER
BW RIB GRAPH 0.45 70897.055 ENDGRAPH ENDRIB ENDBW
BW FIB GRAPH 0.45 40056.645 ENDGRAPH ENDFIB ENDBW
REPLACEMENT RIB GRAPH 0.45 328.08792 ENDGRAPH ENDRIB ENDREPLACEMENT
REPLACEMENT FIB GRAPH 0.45 162.67033 ENDGRAPH ENDFIB ENDREPLACEMENT
totalRIbsize: 167317
totla bestpath nodes: 594125
totla bestpath tcost: 33521095

Testing on Transit seed 5
numpathcap: 10
123456789101112131415161718192021222324252627282930313233343536373839404142434445464748495051525354555657585960616263646566taking longer than: 30stopping this run
removing rib and fib entries for : 407
67686970717273747576777879808182838485taking longer than: 30stopping this run
removing rib and fib entries for : 179
8687888990919293949596979899100101102103104105106taking longer than: 30stopping this run
removing rib and fib entries for : 456
107108109110111112113114115116117118119120121122123124125126127128129130131132133134135136137138139140141142143144145146147148149150151152153154155156157158159160161162163164165HERE
WISER RIB GRAPH 0.45 847960.4 ENDGRAPH ENDRIB ENDWISER
WISER FIB GRAPH 0.45 396621.25 ENDGRAPH ENDFIB ENDWISER
BW RIB GRAPH 0.45 67603.836 ENDGRAPH ENDRIB ENDBW
BW FIB GRAPH 0.45 38535.945 ENDGRAPH ENDFIB ENDBW
REPLACEMENT RIB GRAPH 0.45 324.8132 ENDGRAPH ENDRIB ENDREPLACEMENT
REPLACEMENT FIB GRAPH 0.45 161.67033 ENDGRAPH ENDFIB ENDREPLACEMENT
totalRIbsize: 166212
totla bestpath nodes: 575561
totla bestpath tcost: 36489157

Testing on Transit seed 6
numpathcap: 10
123456789101112131415161718192021222324252627282930313233343536373839404142434445464748495051525354555657585960616263646566676869707172737475767778798081828384858687888990919293949596979899100101102103104105106107108109110111112113114115116117118119120121122123124125126127128129130131132133134135136137138139140141142143144145146147148149150151152153154155156157158159160161162163164165HERE
WISER RIB GRAPH 0.45 852495.56 ENDGRAPH ENDRIB ENDWISER
WISER FIB GRAPH 0.45 387665.7 ENDGRAPH ENDFIB ENDWISER
BW RIB GRAPH 0.45 63143.777 ENDGRAPH ENDRIB ENDBW
BW FIB GRAPH 0.45 35315.332 ENDGRAPH ENDFIB ENDBW
REPLACEMENT RIB GRAPH 0.45 334.57144 ENDGRAPH ENDRIB ENDREPLACEMENT
REPLACEMENT FIB GRAPH 0.45 164.67033 ENDGRAPH ENDFIB ENDREPLACEMENT
totalRIbsize: 169635
totla bestpath nodes: 589602
totla bestpath tcost: 35665245

Testing on Transit seed 7
numpathcap: 10
123456789101112131415161718192021222324252627282930313233343536373839404142434445taking longer than: 30stopping this run
removing rib and fib entries for : 376
464748495051525354555657585960616263646566676869707172737475767778798081828384858687888990919293949596979899100101102103104105106107108109110111112113114115116117118119120121122123124125126127128129130131132133134135136137138139140141142143144145146147148149150151152153154155156157158159160161162163164165HERE
WISER RIB GRAPH 0.45 885327.56 ENDGRAPH ENDRIB ENDWISER
WISER FIB GRAPH 0.45 388547.3 ENDGRAPH ENDFIB ENDWISER
BW RIB GRAPH 0.45 62969.816 ENDGRAPH ENDRIB ENDBW
BW FIB GRAPH 0.45 35285.844 ENDGRAPH ENDFIB ENDBW
REPLACEMENT RIB GRAPH 0.45 332.04395 ENDGRAPH ENDRIB ENDREPLACEMENT
REPLACEMENT FIB GRAPH 0.45 163.68132 ENDGRAPH ENDFIB ENDREPLACEMENT
totalRIbsize: 168855
totla bestpath nodes: 531420
totla bestpath tcost: 35746353

Testing on Transit seed 8
numpathcap: 10
12345678910taking longer than: 30stopping this run
removing rib and fib entries for : 296
1112131415161718192021222324252627282930313233343536373839404142434445464748495051525354555657585960616263646566676869707172737475767778798081828384858687888990919293949596979899100101102103104105106107108109110111112113114115116117118119120121122123124125126127128129130131132133134135136137138139140141142143144145146147148149150151152153154155156157158159160161162taking longer than: 30stopping this run
removing rib and fib entries for : 499
163164165HERE
WISER RIB GRAPH 0.45 872577.2 ENDGRAPH ENDRIB ENDWISER
WISER FIB GRAPH 0.45 406518.25 ENDGRAPH ENDFIB ENDWISER
BW RIB GRAPH 0.45 59489.44 ENDGRAPH ENDRIB ENDBW
BW FIB GRAPH 0.45 33695.91 ENDGRAPH ENDFIB ENDBW
REPLACEMENT RIB GRAPH 0.45 336.76923 ENDGRAPH ENDRIB ENDREPLACEMENT
REPLACEMENT FIB GRAPH 0.45 162.67033 ENDGRAPH ENDFIB ENDREPLACEMENT
totalRIbsize: 168133
totla bestpath nodes: 554368
totla bestpath tcost: 37399682

Testing on Transit seed 9
numpathcap: 10
123456taking longer than: 30stopping this run
removing rib and fib entries for : 282
789101112131415161718192021222324252627282930313233343536373839404142434445464748495051525354taking longer than: 30stopping this run
removing rib and fib entries for : 393
555657585960616263646566676869707172737475767778798081828384858687888990919293949596979899100101102103104105106107108109110111112113114115116117118119120121122123124125126127128129130131132133134135136137138139140141142143144145146147148149150151152153154155156157158159160161162163164165HERE
WISER RIB GRAPH 0.45 897400.2 ENDGRAPH ENDRIB ENDWISER
WISER FIB GRAPH 0.45 404110.25 ENDGRAPH ENDFIB ENDWISER
BW RIB GRAPH 0.45 61815.445 ENDGRAPH ENDRIB ENDBW
BW FIB GRAPH 0.45 34331.332 ENDGRAPH ENDFIB ENDBW
REPLACEMENT RIB GRAPH 0.45 326.95605 ENDGRAPH ENDRIB ENDREPLACEMENT
REPLACEMENT FIB GRAPH 0.45 162.67033 ENDGRAPH ENDFIB ENDREPLACEMENT
totalRIbsize: 168221
totla bestpath nodes: 588244
totla bestpath tcost: 37178144

Testing on Transit seed 10
numpathcap: 10
12345taking longer than: 30stopping this run
removing rib and fib entries for : 281
67taking longer than: 30stopping this run
removing rib and fib entries for : 291
891011121314151617181920212223242526272829303132333435363738394041424344454647484950515253545556575859taking longer than: 30stopping this run
removing rib and fib entries for : 398
60616263646566676869707172737475767778798081828384858687888990919293949596979899100101102103104105106107108109110111112113114115116117118119120121122123124125126127128129130131132133134135136137138139140141142143144145146147148149150151152153154155156157158159160161162163164165HERE
WISER RIB GRAPH 0.45 966017.56 ENDGRAPH ENDRIB ENDWISER
WISER FIB GRAPH 0.45 436739.56 ENDGRAPH ENDFIB ENDWISER
BW RIB GRAPH 0.45 58307.875 ENDGRAPH ENDRIB ENDBW
BW FIB GRAPH 0.45 32408.854 ENDGRAPH ENDFIB ENDBW
REPLACEMENT RIB GRAPH 0.45 330.65933 ENDGRAPH ENDRIB ENDREPLACEMENT
REPLACEMENT FIB GRAPH 0.45 161.67033 ENDGRAPH ENDFIB ENDREPLACEMENT
totalRIbsize: 167080
totla bestpath nodes: 533294
totla bestpath tcost: 40180038
